G04 #@! TF.GenerationSoftware,KiCad,Pcbnew,(5.0.0-rc2-dev-96-g5bbb4489b)*
G04 #@! TF.CreationDate,2018-04-22T16:06:52-05:00*
G04 #@! TF.ProjectId,multi-tas,6D756C74692D7461732E6B696361645F,rev?*
G04 #@! TF.SameCoordinates,Original*
G04 #@! TF.FileFunction,Copper,L1,Top,Signal*
G04 #@! TF.FilePolarity,Positive*
%FSLAX46Y46*%
G04 Gerber Fmt 4.6, Leading zero omitted, Abs format (unit mm)*
G04 Created by KiCad (PCBNEW (5.0.0-rc2-dev-96-g5bbb4489b)) date 04/22/18 16:06:52*
%MOMM*%
%LPD*%
G01*
G04 APERTURE LIST*
%ADD10C,0.100000*%
%ADD11C,0.150000*%
%ADD12C,0.300000*%
%ADD13C,0.400000*%
%ADD14C,6.500000*%
%ADD15R,1.800000X1.800000*%
%ADD16C,1.800000*%
%ADD17C,1.900000*%
%ADD18C,1.500000*%
%ADD19R,1.500000X1.500000*%
%ADD20C,3.650000*%
%ADD21C,2.500000*%
%ADD22C,1.524000*%
%ADD23C,0.250000*%
G04 APERTURE END LIST*
D10*
D11*
X177002200Y-166007200D02*
X177002200Y-198007200D01*
X285002200Y-198007200D01*
X285002200Y-166007200D01*
X177002200Y-166007200D01*
D10*
D11*
X10000000Y-10000000D02*
X10000000Y-200007200D01*
X287002200Y-200007200D01*
X287002200Y-10000000D01*
X10000000Y-10000000D01*
D10*
D11*
X12000000Y-12000000D02*
X12000000Y-198007200D01*
X285002200Y-198007200D01*
X285002200Y-12000000D01*
X12000000Y-12000000D01*
D10*
D11*
X60000000Y-12000000D02*
X60000000Y-10000000D01*
D10*
D11*
X110000000Y-12000000D02*
X110000000Y-10000000D01*
D10*
D11*
X160000000Y-12000000D02*
X160000000Y-10000000D01*
D10*
D11*
X210000000Y-12000000D02*
X210000000Y-10000000D01*
D10*
D11*
X260000000Y-12000000D02*
X260000000Y-10000000D01*
D10*
D11*
X36065476Y-11588095D02*
X35322619Y-11588095D01*
X35694047Y-11588095D02*
X35694047Y-10288095D01*
X35570238Y-10473809D01*
X35446428Y-10597619D01*
X35322619Y-10659523D01*
D10*
D11*
X85322619Y-10411904D02*
X85384523Y-10350000D01*
X85508333Y-10288095D01*
X85817857Y-10288095D01*
X85941666Y-10350000D01*
X86003571Y-10411904D01*
X86065476Y-10535714D01*
X86065476Y-10659523D01*
X86003571Y-10845238D01*
X85260714Y-11588095D01*
X86065476Y-11588095D01*
D10*
D11*
X135260714Y-10288095D02*
X136065476Y-10288095D01*
X135632142Y-10783333D01*
X135817857Y-10783333D01*
X135941666Y-10845238D01*
X136003571Y-10907142D01*
X136065476Y-11030952D01*
X136065476Y-11340476D01*
X136003571Y-11464285D01*
X135941666Y-11526190D01*
X135817857Y-11588095D01*
X135446428Y-11588095D01*
X135322619Y-11526190D01*
X135260714Y-11464285D01*
D10*
D11*
X185941666Y-10721428D02*
X185941666Y-11588095D01*
X185632142Y-10226190D02*
X185322619Y-11154761D01*
X186127380Y-11154761D01*
D10*
D11*
X236003571Y-10288095D02*
X235384523Y-10288095D01*
X235322619Y-10907142D01*
X235384523Y-10845238D01*
X235508333Y-10783333D01*
X235817857Y-10783333D01*
X235941666Y-10845238D01*
X236003571Y-10907142D01*
X236065476Y-11030952D01*
X236065476Y-11340476D01*
X236003571Y-11464285D01*
X235941666Y-11526190D01*
X235817857Y-11588095D01*
X235508333Y-11588095D01*
X235384523Y-11526190D01*
X235322619Y-11464285D01*
D10*
D11*
X285941666Y-10288095D02*
X285694047Y-10288095D01*
X285570238Y-10350000D01*
X285508333Y-10411904D01*
X285384523Y-10597619D01*
X285322619Y-10845238D01*
X285322619Y-11340476D01*
X285384523Y-11464285D01*
X285446428Y-11526190D01*
X285570238Y-11588095D01*
X285817857Y-11588095D01*
X285941666Y-11526190D01*
X286003571Y-11464285D01*
X286065476Y-11340476D01*
X286065476Y-11030952D01*
X286003571Y-10907142D01*
X285941666Y-10845238D01*
X285817857Y-10783333D01*
X285570238Y-10783333D01*
X285446428Y-10845238D01*
X285384523Y-10907142D01*
X285322619Y-11030952D01*
D10*
D11*
X60000000Y-198007200D02*
X60000000Y-200007200D01*
D10*
D11*
X110000000Y-198007200D02*
X110000000Y-200007200D01*
D10*
D11*
X160000000Y-198007200D02*
X160000000Y-200007200D01*
D10*
D11*
X210000000Y-198007200D02*
X210000000Y-200007200D01*
D10*
D11*
X260000000Y-198007200D02*
X260000000Y-200007200D01*
D10*
D11*
X36065476Y-199595295D02*
X35322619Y-199595295D01*
X35694047Y-199595295D02*
X35694047Y-198295295D01*
X35570238Y-198481009D01*
X35446428Y-198604819D01*
X35322619Y-198666723D01*
D10*
D11*
X85322619Y-198419104D02*
X85384523Y-198357200D01*
X85508333Y-198295295D01*
X85817857Y-198295295D01*
X85941666Y-198357200D01*
X86003571Y-198419104D01*
X86065476Y-198542914D01*
X86065476Y-198666723D01*
X86003571Y-198852438D01*
X85260714Y-199595295D01*
X86065476Y-199595295D01*
D10*
D11*
X135260714Y-198295295D02*
X136065476Y-198295295D01*
X135632142Y-198790533D01*
X135817857Y-198790533D01*
X135941666Y-198852438D01*
X136003571Y-198914342D01*
X136065476Y-199038152D01*
X136065476Y-199347676D01*
X136003571Y-199471485D01*
X135941666Y-199533390D01*
X135817857Y-199595295D01*
X135446428Y-199595295D01*
X135322619Y-199533390D01*
X135260714Y-199471485D01*
D10*
D11*
X185941666Y-198728628D02*
X185941666Y-199595295D01*
X185632142Y-198233390D02*
X185322619Y-199161961D01*
X186127380Y-199161961D01*
D10*
D11*
X236003571Y-198295295D02*
X235384523Y-198295295D01*
X235322619Y-198914342D01*
X235384523Y-198852438D01*
X235508333Y-198790533D01*
X235817857Y-198790533D01*
X235941666Y-198852438D01*
X236003571Y-198914342D01*
X236065476Y-199038152D01*
X236065476Y-199347676D01*
X236003571Y-199471485D01*
X235941666Y-199533390D01*
X235817857Y-199595295D01*
X235508333Y-199595295D01*
X235384523Y-199533390D01*
X235322619Y-199471485D01*
D10*
D11*
X285941666Y-198295295D02*
X285694047Y-198295295D01*
X285570238Y-198357200D01*
X285508333Y-198419104D01*
X285384523Y-198604819D01*
X285322619Y-198852438D01*
X285322619Y-199347676D01*
X285384523Y-199471485D01*
X285446428Y-199533390D01*
X285570238Y-199595295D01*
X285817857Y-199595295D01*
X285941666Y-199533390D01*
X286003571Y-199471485D01*
X286065476Y-199347676D01*
X286065476Y-199038152D01*
X286003571Y-198914342D01*
X285941666Y-198852438D01*
X285817857Y-198790533D01*
X285570238Y-198790533D01*
X285446428Y-198852438D01*
X285384523Y-198914342D01*
X285322619Y-199038152D01*
D10*
D11*
X10000000Y-60000000D02*
X12000000Y-60000000D01*
D10*
D11*
X10000000Y-110000000D02*
X12000000Y-110000000D01*
D10*
D11*
X10000000Y-160000000D02*
X12000000Y-160000000D01*
D10*
D11*
X10690476Y-35216666D02*
X11309523Y-35216666D01*
X10566666Y-35588095D02*
X11000000Y-34288095D01*
X11433333Y-35588095D01*
D10*
D11*
X11092857Y-84907142D02*
X11278571Y-84969047D01*
X11340476Y-85030952D01*
X11402380Y-85154761D01*
X11402380Y-85340476D01*
X11340476Y-85464285D01*
X11278571Y-85526190D01*
X11154761Y-85588095D01*
X10659523Y-85588095D01*
X10659523Y-84288095D01*
X11092857Y-84288095D01*
X11216666Y-84350000D01*
X11278571Y-84411904D01*
X11340476Y-84535714D01*
X11340476Y-84659523D01*
X11278571Y-84783333D01*
X11216666Y-84845238D01*
X11092857Y-84907142D01*
X10659523Y-84907142D01*
D10*
D11*
X11402380Y-135464285D02*
X11340476Y-135526190D01*
X11154761Y-135588095D01*
X11030952Y-135588095D01*
X10845238Y-135526190D01*
X10721428Y-135402380D01*
X10659523Y-135278571D01*
X10597619Y-135030952D01*
X10597619Y-134845238D01*
X10659523Y-134597619D01*
X10721428Y-134473809D01*
X10845238Y-134350000D01*
X11030952Y-134288095D01*
X11154761Y-134288095D01*
X11340476Y-134350000D01*
X11402380Y-134411904D01*
D10*
D11*
X10659523Y-185588095D02*
X10659523Y-184288095D01*
X10969047Y-184288095D01*
X11154761Y-184350000D01*
X11278571Y-184473809D01*
X11340476Y-184597619D01*
X11402380Y-184845238D01*
X11402380Y-185030952D01*
X11340476Y-185278571D01*
X11278571Y-185402380D01*
X11154761Y-185526190D01*
X10969047Y-185588095D01*
X10659523Y-185588095D01*
D10*
D11*
X287002200Y-60000000D02*
X285002200Y-60000000D01*
D10*
D11*
X287002200Y-110000000D02*
X285002200Y-110000000D01*
D10*
D11*
X287002200Y-160000000D02*
X285002200Y-160000000D01*
D10*
D11*
X285692676Y-35216666D02*
X286311723Y-35216666D01*
X285568866Y-35588095D02*
X286002200Y-34288095D01*
X286435533Y-35588095D01*
D10*
D11*
X286095057Y-84907142D02*
X286280771Y-84969047D01*
X286342676Y-85030952D01*
X286404580Y-85154761D01*
X286404580Y-85340476D01*
X286342676Y-85464285D01*
X286280771Y-85526190D01*
X286156961Y-85588095D01*
X285661723Y-85588095D01*
X285661723Y-84288095D01*
X286095057Y-84288095D01*
X286218866Y-84350000D01*
X286280771Y-84411904D01*
X286342676Y-84535714D01*
X286342676Y-84659523D01*
X286280771Y-84783333D01*
X286218866Y-84845238D01*
X286095057Y-84907142D01*
X285661723Y-84907142D01*
D10*
D11*
X286404580Y-135464285D02*
X286342676Y-135526190D01*
X286156961Y-135588095D01*
X286033152Y-135588095D01*
X285847438Y-135526190D01*
X285723628Y-135402380D01*
X285661723Y-135278571D01*
X285599819Y-135030952D01*
X285599819Y-134845238D01*
X285661723Y-134597619D01*
X285723628Y-134473809D01*
X285847438Y-134350000D01*
X286033152Y-134288095D01*
X286156961Y-134288095D01*
X286342676Y-134350000D01*
X286404580Y-134411904D01*
D10*
D11*
X285661723Y-185588095D02*
X285661723Y-184288095D01*
X285971247Y-184288095D01*
X286156961Y-184350000D01*
X286280771Y-184473809D01*
X286342676Y-184597619D01*
X286404580Y-184845238D01*
X286404580Y-185030952D01*
X286342676Y-185278571D01*
X286280771Y-185402380D01*
X286156961Y-185526190D01*
X285971247Y-185588095D01*
X285661723Y-185588095D01*
D10*
D11*
X200434342Y-193785771D02*
X200434342Y-192285771D01*
X200791485Y-192285771D01*
X201005771Y-192357200D01*
X201148628Y-192500057D01*
X201220057Y-192642914D01*
X201291485Y-192928628D01*
X201291485Y-193142914D01*
X201220057Y-193428628D01*
X201148628Y-193571485D01*
X201005771Y-193714342D01*
X200791485Y-193785771D01*
X200434342Y-193785771D01*
X202577200Y-193785771D02*
X202577200Y-193000057D01*
X202505771Y-192857200D01*
X202362914Y-192785771D01*
X202077200Y-192785771D01*
X201934342Y-192857200D01*
X202577200Y-193714342D02*
X202434342Y-193785771D01*
X202077200Y-193785771D01*
X201934342Y-193714342D01*
X201862914Y-193571485D01*
X201862914Y-193428628D01*
X201934342Y-193285771D01*
X202077200Y-193214342D01*
X202434342Y-193214342D01*
X202577200Y-193142914D01*
X203077200Y-192785771D02*
X203648628Y-192785771D01*
X203291485Y-192285771D02*
X203291485Y-193571485D01*
X203362914Y-193714342D01*
X203505771Y-193785771D01*
X203648628Y-193785771D01*
X204720057Y-193714342D02*
X204577200Y-193785771D01*
X204291485Y-193785771D01*
X204148628Y-193714342D01*
X204077200Y-193571485D01*
X204077200Y-193000057D01*
X204148628Y-192857200D01*
X204291485Y-192785771D01*
X204577200Y-192785771D01*
X204720057Y-192857200D01*
X204791485Y-193000057D01*
X204791485Y-193142914D01*
X204077200Y-193285771D01*
X205434342Y-193642914D02*
X205505771Y-193714342D01*
X205434342Y-193785771D01*
X205362914Y-193714342D01*
X205434342Y-193642914D01*
X205434342Y-193785771D01*
X205434342Y-192857200D02*
X205505771Y-192928628D01*
X205434342Y-193000057D01*
X205362914Y-192928628D01*
X205434342Y-192857200D01*
X205434342Y-193000057D01*
D10*
D11*
X177002200Y-194507200D02*
X285002200Y-194507200D01*
D10*
D11*
X178434342Y-196585771D02*
X178434342Y-195085771D01*
X179291485Y-196585771D02*
X178648628Y-195728628D01*
X179291485Y-195085771D02*
X178434342Y-195942914D01*
X179934342Y-196585771D02*
X179934342Y-195585771D01*
X179934342Y-195085771D02*
X179862914Y-195157200D01*
X179934342Y-195228628D01*
X180005771Y-195157200D01*
X179934342Y-195085771D01*
X179934342Y-195228628D01*
X181505771Y-196442914D02*
X181434342Y-196514342D01*
X181220057Y-196585771D01*
X181077200Y-196585771D01*
X180862914Y-196514342D01*
X180720057Y-196371485D01*
X180648628Y-196228628D01*
X180577200Y-195942914D01*
X180577200Y-195728628D01*
X180648628Y-195442914D01*
X180720057Y-195300057D01*
X180862914Y-195157200D01*
X181077200Y-195085771D01*
X181220057Y-195085771D01*
X181434342Y-195157200D01*
X181505771Y-195228628D01*
X182791485Y-196585771D02*
X182791485Y-195800057D01*
X182720057Y-195657200D01*
X182577200Y-195585771D01*
X182291485Y-195585771D01*
X182148628Y-195657200D01*
X182791485Y-196514342D02*
X182648628Y-196585771D01*
X182291485Y-196585771D01*
X182148628Y-196514342D01*
X182077200Y-196371485D01*
X182077200Y-196228628D01*
X182148628Y-196085771D01*
X182291485Y-196014342D01*
X182648628Y-196014342D01*
X182791485Y-195942914D01*
X184148628Y-196585771D02*
X184148628Y-195085771D01*
X184148628Y-196514342D02*
X184005771Y-196585771D01*
X183720057Y-196585771D01*
X183577200Y-196514342D01*
X183505771Y-196442914D01*
X183434342Y-196300057D01*
X183434342Y-195871485D01*
X183505771Y-195728628D01*
X183577200Y-195657200D01*
X183720057Y-195585771D01*
X184005771Y-195585771D01*
X184148628Y-195657200D01*
X186005771Y-195800057D02*
X186505771Y-195800057D01*
X186720057Y-196585771D02*
X186005771Y-196585771D01*
X186005771Y-195085771D01*
X186720057Y-195085771D01*
X187362914Y-196442914D02*
X187434342Y-196514342D01*
X187362914Y-196585771D01*
X187291485Y-196514342D01*
X187362914Y-196442914D01*
X187362914Y-196585771D01*
X188077200Y-196585771D02*
X188077200Y-195085771D01*
X188434342Y-195085771D01*
X188648628Y-195157200D01*
X188791485Y-195300057D01*
X188862914Y-195442914D01*
X188934342Y-195728628D01*
X188934342Y-195942914D01*
X188862914Y-196228628D01*
X188791485Y-196371485D01*
X188648628Y-196514342D01*
X188434342Y-196585771D01*
X188077200Y-196585771D01*
X189577200Y-196442914D02*
X189648628Y-196514342D01*
X189577200Y-196585771D01*
X189505771Y-196514342D01*
X189577200Y-196442914D01*
X189577200Y-196585771D01*
X190220057Y-196157200D02*
X190934342Y-196157200D01*
X190077200Y-196585771D02*
X190577200Y-195085771D01*
X191077200Y-196585771D01*
X191577200Y-196442914D02*
X191648628Y-196514342D01*
X191577200Y-196585771D01*
X191505771Y-196514342D01*
X191577200Y-196442914D01*
X191577200Y-196585771D01*
X194577200Y-196585771D02*
X194577200Y-195085771D01*
X194720057Y-196014342D02*
X195148628Y-196585771D01*
X195148628Y-195585771D02*
X194577200Y-196157200D01*
X195791485Y-196585771D02*
X195791485Y-195585771D01*
X195791485Y-195085771D02*
X195720057Y-195157200D01*
X195791485Y-195228628D01*
X195862914Y-195157200D01*
X195791485Y-195085771D01*
X195791485Y-195228628D01*
X197148628Y-196514342D02*
X197005771Y-196585771D01*
X196720057Y-196585771D01*
X196577200Y-196514342D01*
X196505771Y-196442914D01*
X196434342Y-196300057D01*
X196434342Y-195871485D01*
X196505771Y-195728628D01*
X196577200Y-195657200D01*
X196720057Y-195585771D01*
X197005771Y-195585771D01*
X197148628Y-195657200D01*
X198434342Y-196585771D02*
X198434342Y-195800057D01*
X198362914Y-195657200D01*
X198220057Y-195585771D01*
X197934342Y-195585771D01*
X197791485Y-195657200D01*
X198434342Y-196514342D02*
X198291485Y-196585771D01*
X197934342Y-196585771D01*
X197791485Y-196514342D01*
X197720057Y-196371485D01*
X197720057Y-196228628D01*
X197791485Y-196085771D01*
X197934342Y-196014342D01*
X198291485Y-196014342D01*
X198434342Y-195942914D01*
X199791485Y-196585771D02*
X199791485Y-195085771D01*
X199791485Y-196514342D02*
X199648628Y-196585771D01*
X199362914Y-196585771D01*
X199220057Y-196514342D01*
X199148628Y-196442914D01*
X199077200Y-196300057D01*
X199077200Y-195871485D01*
X199148628Y-195728628D01*
X199220057Y-195657200D01*
X199362914Y-195585771D01*
X199648628Y-195585771D01*
X199791485Y-195657200D01*
X202077200Y-197157200D02*
X202005771Y-197085771D01*
X201862914Y-196871485D01*
X201791485Y-196728628D01*
X201720057Y-196514342D01*
X201648628Y-196157200D01*
X201648628Y-195871485D01*
X201720057Y-195514342D01*
X201791485Y-195300057D01*
X201862914Y-195157200D01*
X202005771Y-194942914D01*
X202077200Y-194871485D01*
X203362914Y-195085771D02*
X202648628Y-195085771D01*
X202577200Y-195800057D01*
X202648628Y-195728628D01*
X202791485Y-195657200D01*
X203148628Y-195657200D01*
X203291485Y-195728628D01*
X203362914Y-195800057D01*
X203434342Y-195942914D01*
X203434342Y-196300057D01*
X203362914Y-196442914D01*
X203291485Y-196514342D01*
X203148628Y-196585771D01*
X202791485Y-196585771D01*
X202648628Y-196514342D01*
X202577200Y-196442914D01*
X204077200Y-196442914D02*
X204148628Y-196514342D01*
X204077200Y-196585771D01*
X204005771Y-196514342D01*
X204077200Y-196442914D01*
X204077200Y-196585771D01*
X205077200Y-195085771D02*
X205220057Y-195085771D01*
X205362914Y-195157200D01*
X205434342Y-195228628D01*
X205505771Y-195371485D01*
X205577200Y-195657200D01*
X205577200Y-196014342D01*
X205505771Y-196300057D01*
X205434342Y-196442914D01*
X205362914Y-196514342D01*
X205220057Y-196585771D01*
X205077200Y-196585771D01*
X204934342Y-196514342D01*
X204862914Y-196442914D01*
X204791485Y-196300057D01*
X204720057Y-196014342D01*
X204720057Y-195657200D01*
X204791485Y-195371485D01*
X204862914Y-195228628D01*
X204934342Y-195157200D01*
X205077200Y-195085771D01*
X206220057Y-196442914D02*
X206291485Y-196514342D01*
X206220057Y-196585771D01*
X206148628Y-196514342D01*
X206220057Y-196442914D01*
X206220057Y-196585771D01*
X207220057Y-195085771D02*
X207362914Y-195085771D01*
X207505771Y-195157200D01*
X207577200Y-195228628D01*
X207648628Y-195371485D01*
X207720057Y-195657200D01*
X207720057Y-196014342D01*
X207648628Y-196300057D01*
X207577200Y-196442914D01*
X207505771Y-196514342D01*
X207362914Y-196585771D01*
X207220057Y-196585771D01*
X207077200Y-196514342D01*
X207005771Y-196442914D01*
X206934342Y-196300057D01*
X206862914Y-196014342D01*
X206862914Y-195657200D01*
X206934342Y-195371485D01*
X207005771Y-195228628D01*
X207077200Y-195157200D01*
X207220057Y-195085771D01*
X208362914Y-196014342D02*
X209505771Y-196014342D01*
X210220057Y-196585771D02*
X210220057Y-195585771D01*
X210220057Y-195871485D02*
X210291485Y-195728628D01*
X210362914Y-195657200D01*
X210505771Y-195585771D01*
X210648628Y-195585771D01*
X211791485Y-196514342D02*
X211648628Y-196585771D01*
X211362914Y-196585771D01*
X211220057Y-196514342D01*
X211148628Y-196442914D01*
X211077200Y-196300057D01*
X211077200Y-195871485D01*
X211148628Y-195728628D01*
X211220057Y-195657200D01*
X211362914Y-195585771D01*
X211648628Y-195585771D01*
X211791485Y-195657200D01*
X212362914Y-195228628D02*
X212434342Y-195157200D01*
X212577200Y-195085771D01*
X212934342Y-195085771D01*
X213077200Y-195157200D01*
X213148628Y-195228628D01*
X213220057Y-195371485D01*
X213220057Y-195514342D01*
X213148628Y-195728628D01*
X212291485Y-196585771D01*
X213220057Y-196585771D01*
X213862914Y-196014342D02*
X215005771Y-196014342D01*
X216362914Y-196585771D02*
X216362914Y-195085771D01*
X216362914Y-196514342D02*
X216220057Y-196585771D01*
X215934342Y-196585771D01*
X215791485Y-196514342D01*
X215720057Y-196442914D01*
X215648628Y-196300057D01*
X215648628Y-195871485D01*
X215720057Y-195728628D01*
X215791485Y-195657200D01*
X215934342Y-195585771D01*
X216220057Y-195585771D01*
X216362914Y-195657200D01*
X217648628Y-196514342D02*
X217505771Y-196585771D01*
X217220057Y-196585771D01*
X217077200Y-196514342D01*
X217005771Y-196371485D01*
X217005771Y-195800057D01*
X217077200Y-195657200D01*
X217220057Y-195585771D01*
X217505771Y-195585771D01*
X217648628Y-195657200D01*
X217720057Y-195800057D01*
X217720057Y-195942914D01*
X217005771Y-196085771D01*
X218220057Y-195585771D02*
X218577200Y-196585771D01*
X218934342Y-195585771D01*
X219505771Y-196014342D02*
X220648628Y-196014342D01*
X221434342Y-196585771D02*
X221720057Y-196585771D01*
X221862914Y-196514342D01*
X221934342Y-196442914D01*
X222077200Y-196228628D01*
X222148628Y-195942914D01*
X222148628Y-195371485D01*
X222077200Y-195228628D01*
X222005771Y-195157200D01*
X221862914Y-195085771D01*
X221577200Y-195085771D01*
X221434342Y-195157200D01*
X221362914Y-195228628D01*
X221291485Y-195371485D01*
X221291485Y-195728628D01*
X221362914Y-195871485D01*
X221434342Y-195942914D01*
X221577200Y-196014342D01*
X221862914Y-196014342D01*
X222005771Y-195942914D01*
X222077200Y-195871485D01*
X222148628Y-195728628D01*
X223434342Y-195085771D02*
X223148628Y-195085771D01*
X223005771Y-195157200D01*
X222934342Y-195228628D01*
X222791485Y-195442914D01*
X222720057Y-195728628D01*
X222720057Y-196300057D01*
X222791485Y-196442914D01*
X222862914Y-196514342D01*
X223005771Y-196585771D01*
X223291485Y-196585771D01*
X223434342Y-196514342D01*
X223505771Y-196442914D01*
X223577200Y-196300057D01*
X223577200Y-195942914D01*
X223505771Y-195800057D01*
X223434342Y-195728628D01*
X223291485Y-195657200D01*
X223005771Y-195657200D01*
X222862914Y-195728628D01*
X222791485Y-195800057D01*
X222720057Y-195942914D01*
X224220057Y-196014342D02*
X225362914Y-196014342D01*
X226720057Y-195585771D02*
X226720057Y-196800057D01*
X226648628Y-196942914D01*
X226577200Y-197014342D01*
X226434342Y-197085771D01*
X226220057Y-197085771D01*
X226077200Y-197014342D01*
X226720057Y-196514342D02*
X226577200Y-196585771D01*
X226291485Y-196585771D01*
X226148628Y-196514342D01*
X226077200Y-196442914D01*
X226005771Y-196300057D01*
X226005771Y-195871485D01*
X226077200Y-195728628D01*
X226148628Y-195657200D01*
X226291485Y-195585771D01*
X226577200Y-195585771D01*
X226720057Y-195657200D01*
X228148628Y-195085771D02*
X227434342Y-195085771D01*
X227362914Y-195800057D01*
X227434342Y-195728628D01*
X227577200Y-195657200D01*
X227934342Y-195657200D01*
X228077200Y-195728628D01*
X228148628Y-195800057D01*
X228220057Y-195942914D01*
X228220057Y-196300057D01*
X228148628Y-196442914D01*
X228077200Y-196514342D01*
X227934342Y-196585771D01*
X227577200Y-196585771D01*
X227434342Y-196514342D01*
X227362914Y-196442914D01*
X228862914Y-196585771D02*
X228862914Y-195085771D01*
X228862914Y-195657200D02*
X229005771Y-195585771D01*
X229291485Y-195585771D01*
X229434342Y-195657200D01*
X229505771Y-195728628D01*
X229577200Y-195871485D01*
X229577200Y-196300057D01*
X229505771Y-196442914D01*
X229434342Y-196514342D01*
X229291485Y-196585771D01*
X229005771Y-196585771D01*
X228862914Y-196514342D01*
X230220057Y-196585771D02*
X230220057Y-195085771D01*
X230220057Y-195657200D02*
X230362914Y-195585771D01*
X230648628Y-195585771D01*
X230791485Y-195657200D01*
X230862914Y-195728628D01*
X230934342Y-195871485D01*
X230934342Y-196300057D01*
X230862914Y-196442914D01*
X230791485Y-196514342D01*
X230648628Y-196585771D01*
X230362914Y-196585771D01*
X230220057Y-196514342D01*
X231577200Y-196585771D02*
X231577200Y-195085771D01*
X231577200Y-195657200D02*
X231720057Y-195585771D01*
X232005771Y-195585771D01*
X232148628Y-195657200D01*
X232220057Y-195728628D01*
X232291485Y-195871485D01*
X232291485Y-196300057D01*
X232220057Y-196442914D01*
X232148628Y-196514342D01*
X232005771Y-196585771D01*
X231720057Y-196585771D01*
X231577200Y-196514342D01*
X233577200Y-195585771D02*
X233577200Y-196585771D01*
X233220057Y-195014342D02*
X232862914Y-196085771D01*
X233791485Y-196085771D01*
X235005771Y-195585771D02*
X235005771Y-196585771D01*
X234648628Y-195014342D02*
X234291485Y-196085771D01*
X235220057Y-196085771D01*
X236005771Y-195728628D02*
X235862914Y-195657200D01*
X235791485Y-195585771D01*
X235720057Y-195442914D01*
X235720057Y-195371485D01*
X235791485Y-195228628D01*
X235862914Y-195157200D01*
X236005771Y-195085771D01*
X236291485Y-195085771D01*
X236434342Y-195157200D01*
X236505771Y-195228628D01*
X236577200Y-195371485D01*
X236577200Y-195442914D01*
X236505771Y-195585771D01*
X236434342Y-195657200D01*
X236291485Y-195728628D01*
X236005771Y-195728628D01*
X235862914Y-195800057D01*
X235791485Y-195871485D01*
X235720057Y-196014342D01*
X235720057Y-196300057D01*
X235791485Y-196442914D01*
X235862914Y-196514342D01*
X236005771Y-196585771D01*
X236291485Y-196585771D01*
X236434342Y-196514342D01*
X236505771Y-196442914D01*
X236577200Y-196300057D01*
X236577200Y-196014342D01*
X236505771Y-195871485D01*
X236434342Y-195800057D01*
X236291485Y-195728628D01*
X237291485Y-196585771D02*
X237577200Y-196585771D01*
X237720057Y-196514342D01*
X237791485Y-196442914D01*
X237934342Y-196228628D01*
X238005771Y-195942914D01*
X238005771Y-195371485D01*
X237934342Y-195228628D01*
X237862914Y-195157200D01*
X237720057Y-195085771D01*
X237434342Y-195085771D01*
X237291485Y-195157200D01*
X237220057Y-195228628D01*
X237148628Y-195371485D01*
X237148628Y-195728628D01*
X237220057Y-195871485D01*
X237291485Y-195942914D01*
X237434342Y-196014342D01*
X237720057Y-196014342D01*
X237862914Y-195942914D01*
X237934342Y-195871485D01*
X238005771Y-195728628D01*
X238648628Y-196585771D02*
X238648628Y-195085771D01*
X238648628Y-195657200D02*
X238791485Y-195585771D01*
X239077199Y-195585771D01*
X239220057Y-195657200D01*
X239291485Y-195728628D01*
X239362914Y-195871485D01*
X239362914Y-196300057D01*
X239291485Y-196442914D01*
X239220057Y-196514342D01*
X239077199Y-196585771D01*
X238791485Y-196585771D01*
X238648628Y-196514342D01*
X239862914Y-197157200D02*
X239934342Y-197085771D01*
X240077199Y-196871485D01*
X240148628Y-196728628D01*
X240220057Y-196514342D01*
X240291485Y-196157200D01*
X240291485Y-195871485D01*
X240220057Y-195514342D01*
X240148628Y-195300057D01*
X240077199Y-195157200D01*
X239934342Y-194942914D01*
X239862914Y-194871485D01*
D10*
D11*
X177002200Y-191507200D02*
X285002200Y-191507200D01*
D10*
D12*
X264411485Y-193785771D02*
X263911485Y-193071485D01*
X263554342Y-193785771D02*
X263554342Y-192285771D01*
X264125771Y-192285771D01*
X264268628Y-192357200D01*
X264340057Y-192428628D01*
X264411485Y-192571485D01*
X264411485Y-192785771D01*
X264340057Y-192928628D01*
X264268628Y-193000057D01*
X264125771Y-193071485D01*
X263554342Y-193071485D01*
X265625771Y-193714342D02*
X265482914Y-193785771D01*
X265197200Y-193785771D01*
X265054342Y-193714342D01*
X264982914Y-193571485D01*
X264982914Y-193000057D01*
X265054342Y-192857200D01*
X265197200Y-192785771D01*
X265482914Y-192785771D01*
X265625771Y-192857200D01*
X265697200Y-193000057D01*
X265697200Y-193142914D01*
X264982914Y-193285771D01*
X266197200Y-192785771D02*
X266554342Y-193785771D01*
X266911485Y-192785771D01*
X267482914Y-193642914D02*
X267554342Y-193714342D01*
X267482914Y-193785771D01*
X267411485Y-193714342D01*
X267482914Y-193642914D01*
X267482914Y-193785771D01*
X267482914Y-192857200D02*
X267554342Y-192928628D01*
X267482914Y-193000057D01*
X267411485Y-192928628D01*
X267482914Y-192857200D01*
X267482914Y-193000057D01*
D10*
D11*
X178362914Y-193714342D02*
X178577200Y-193785771D01*
X178934342Y-193785771D01*
X179077200Y-193714342D01*
X179148628Y-193642914D01*
X179220057Y-193500057D01*
X179220057Y-193357200D01*
X179148628Y-193214342D01*
X179077200Y-193142914D01*
X178934342Y-193071485D01*
X178648628Y-193000057D01*
X178505771Y-192928628D01*
X178434342Y-192857200D01*
X178362914Y-192714342D01*
X178362914Y-192571485D01*
X178434342Y-192428628D01*
X178505771Y-192357200D01*
X178648628Y-192285771D01*
X179005771Y-192285771D01*
X179220057Y-192357200D01*
X179862914Y-193785771D02*
X179862914Y-192785771D01*
X179862914Y-192285771D02*
X179791485Y-192357200D01*
X179862914Y-192428628D01*
X179934342Y-192357200D01*
X179862914Y-192285771D01*
X179862914Y-192428628D01*
X180434342Y-192785771D02*
X181220057Y-192785771D01*
X180434342Y-193785771D01*
X181220057Y-193785771D01*
X182362914Y-193714342D02*
X182220057Y-193785771D01*
X181934342Y-193785771D01*
X181791485Y-193714342D01*
X181720057Y-193571485D01*
X181720057Y-193000057D01*
X181791485Y-192857200D01*
X181934342Y-192785771D01*
X182220057Y-192785771D01*
X182362914Y-192857200D01*
X182434342Y-193000057D01*
X182434342Y-193142914D01*
X181720057Y-193285771D01*
X183077200Y-193642914D02*
X183148628Y-193714342D01*
X183077200Y-193785771D01*
X183005771Y-193714342D01*
X183077200Y-193642914D01*
X183077200Y-193785771D01*
X183077200Y-192857200D02*
X183148628Y-192928628D01*
X183077200Y-193000057D01*
X183005771Y-192928628D01*
X183077200Y-192857200D01*
X183077200Y-193000057D01*
X184862914Y-193357200D02*
X185577200Y-193357200D01*
X184720057Y-193785771D02*
X185220057Y-192285771D01*
X185720057Y-193785771D01*
X186862914Y-192785771D02*
X186862914Y-193785771D01*
X186505771Y-192214342D02*
X186148628Y-193285771D01*
X187077200Y-193285771D01*
D10*
D11*
X263434342Y-196585771D02*
X263434342Y-195085771D01*
X264791485Y-196585771D02*
X264791485Y-195085771D01*
X264791485Y-196514342D02*
X264648628Y-196585771D01*
X264362914Y-196585771D01*
X264220057Y-196514342D01*
X264148628Y-196442914D01*
X264077200Y-196300057D01*
X264077200Y-195871485D01*
X264148628Y-195728628D01*
X264220057Y-195657200D01*
X264362914Y-195585771D01*
X264648628Y-195585771D01*
X264791485Y-195657200D01*
X265505771Y-196442914D02*
X265577200Y-196514342D01*
X265505771Y-196585771D01*
X265434342Y-196514342D01*
X265505771Y-196442914D01*
X265505771Y-196585771D01*
X265505771Y-195657200D02*
X265577200Y-195728628D01*
X265505771Y-195800057D01*
X265434342Y-195728628D01*
X265505771Y-195657200D01*
X265505771Y-195800057D01*
X268148628Y-196585771D02*
X267291485Y-196585771D01*
X267720057Y-196585771D02*
X267720057Y-195085771D01*
X267577200Y-195300057D01*
X267434342Y-195442914D01*
X267291485Y-195514342D01*
X269862914Y-195014342D02*
X268577200Y-196942914D01*
X271148628Y-196585771D02*
X270291485Y-196585771D01*
X270720057Y-196585771D02*
X270720057Y-195085771D01*
X270577200Y-195300057D01*
X270434342Y-195442914D01*
X270291485Y-195514342D01*
D10*
D11*
X177002200Y-187507200D02*
X285002200Y-187507200D01*
D10*
D13*
X178714580Y-188211961D02*
X179857438Y-188211961D01*
X179036009Y-190211961D02*
X179286009Y-188211961D01*
X180274104Y-190211961D02*
X180440771Y-188878628D01*
X180524104Y-188211961D02*
X180416961Y-188307200D01*
X180500295Y-188402438D01*
X180607438Y-188307200D01*
X180524104Y-188211961D01*
X180500295Y-188402438D01*
X181107438Y-188878628D02*
X181869342Y-188878628D01*
X181476485Y-188211961D02*
X181262200Y-189926247D01*
X181333628Y-190116723D01*
X181512200Y-190211961D01*
X181702676Y-190211961D01*
X182655057Y-190211961D02*
X182476485Y-190116723D01*
X182405057Y-189926247D01*
X182619342Y-188211961D01*
X184190771Y-190116723D02*
X183988390Y-190211961D01*
X183607438Y-190211961D01*
X183428866Y-190116723D01*
X183357438Y-189926247D01*
X183452676Y-189164342D01*
X183571723Y-188973866D01*
X183774104Y-188878628D01*
X184155057Y-188878628D01*
X184333628Y-188973866D01*
X184405057Y-189164342D01*
X184381247Y-189354819D01*
X183405057Y-189545295D01*
X185155057Y-190021485D02*
X185238390Y-190116723D01*
X185131247Y-190211961D01*
X185047914Y-190116723D01*
X185155057Y-190021485D01*
X185131247Y-190211961D01*
X185286009Y-188973866D02*
X185369342Y-189069104D01*
X185262200Y-189164342D01*
X185178866Y-189069104D01*
X185286009Y-188973866D01*
X185262200Y-189164342D01*
D10*
D11*
X178934342Y-185600057D02*
X178434342Y-185600057D01*
X178434342Y-186385771D02*
X178434342Y-184885771D01*
X179148628Y-184885771D01*
X179720057Y-186385771D02*
X179720057Y-185385771D01*
X179720057Y-184885771D02*
X179648628Y-184957200D01*
X179720057Y-185028628D01*
X179791485Y-184957200D01*
X179720057Y-184885771D01*
X179720057Y-185028628D01*
X180648628Y-186385771D02*
X180505771Y-186314342D01*
X180434342Y-186171485D01*
X180434342Y-184885771D01*
X181791485Y-186314342D02*
X181648628Y-186385771D01*
X181362914Y-186385771D01*
X181220057Y-186314342D01*
X181148628Y-186171485D01*
X181148628Y-185600057D01*
X181220057Y-185457200D01*
X181362914Y-185385771D01*
X181648628Y-185385771D01*
X181791485Y-185457200D01*
X181862914Y-185600057D01*
X181862914Y-185742914D01*
X181148628Y-185885771D01*
X182505771Y-186242914D02*
X182577200Y-186314342D01*
X182505771Y-186385771D01*
X182434342Y-186314342D01*
X182505771Y-186242914D01*
X182505771Y-186385771D01*
X182505771Y-185457200D02*
X182577200Y-185528628D01*
X182505771Y-185600057D01*
X182434342Y-185528628D01*
X182505771Y-185457200D01*
X182505771Y-185600057D01*
X184362914Y-186385771D02*
X184362914Y-185385771D01*
X184362914Y-185528628D02*
X184434342Y-185457200D01*
X184577200Y-185385771D01*
X184791485Y-185385771D01*
X184934342Y-185457200D01*
X185005771Y-185600057D01*
X185005771Y-186385771D01*
X185005771Y-185600057D02*
X185077200Y-185457200D01*
X185220057Y-185385771D01*
X185434342Y-185385771D01*
X185577200Y-185457200D01*
X185648628Y-185600057D01*
X185648628Y-186385771D01*
X187005771Y-185385771D02*
X187005771Y-186385771D01*
X186362914Y-185385771D02*
X186362914Y-186171485D01*
X186434342Y-186314342D01*
X186577200Y-186385771D01*
X186791485Y-186385771D01*
X186934342Y-186314342D01*
X187005771Y-186242914D01*
X187934342Y-186385771D02*
X187791485Y-186314342D01*
X187720057Y-186171485D01*
X187720057Y-184885771D01*
X188291485Y-185385771D02*
X188862914Y-185385771D01*
X188505771Y-184885771D02*
X188505771Y-186171485D01*
X188577200Y-186314342D01*
X188720057Y-186385771D01*
X188862914Y-186385771D01*
X189362914Y-186385771D02*
X189362914Y-185385771D01*
X189362914Y-184885771D02*
X189291485Y-184957200D01*
X189362914Y-185028628D01*
X189434342Y-184957200D01*
X189362914Y-184885771D01*
X189362914Y-185028628D01*
X190077200Y-185814342D02*
X191220057Y-185814342D01*
X191720057Y-185385771D02*
X192291485Y-185385771D01*
X191934342Y-184885771D02*
X191934342Y-186171485D01*
X192005771Y-186314342D01*
X192148628Y-186385771D01*
X192291485Y-186385771D01*
X193434342Y-186385771D02*
X193434342Y-185600057D01*
X193362914Y-185457200D01*
X193220057Y-185385771D01*
X192934342Y-185385771D01*
X192791485Y-185457200D01*
X193434342Y-186314342D02*
X193291485Y-186385771D01*
X192934342Y-186385771D01*
X192791485Y-186314342D01*
X192720057Y-186171485D01*
X192720057Y-186028628D01*
X192791485Y-185885771D01*
X192934342Y-185814342D01*
X193291485Y-185814342D01*
X193434342Y-185742914D01*
X194077200Y-186314342D02*
X194220057Y-186385771D01*
X194505771Y-186385771D01*
X194648628Y-186314342D01*
X194720057Y-186171485D01*
X194720057Y-186100057D01*
X194648628Y-185957200D01*
X194505771Y-185885771D01*
X194291485Y-185885771D01*
X194148628Y-185814342D01*
X194077200Y-185671485D01*
X194077200Y-185600057D01*
X194148628Y-185457200D01*
X194291485Y-185385771D01*
X194505771Y-185385771D01*
X194648628Y-185457200D01*
X195362914Y-186242914D02*
X195434342Y-186314342D01*
X195362914Y-186385771D01*
X195291485Y-186314342D01*
X195362914Y-186242914D01*
X195362914Y-186385771D01*
X196077200Y-186385771D02*
X196077200Y-184885771D01*
X196220057Y-185814342D02*
X196648628Y-186385771D01*
X196648628Y-185385771D02*
X196077200Y-185957200D01*
X197291485Y-186385771D02*
X197291485Y-185385771D01*
X197291485Y-184885771D02*
X197220057Y-184957200D01*
X197291485Y-185028628D01*
X197362914Y-184957200D01*
X197291485Y-184885771D01*
X197291485Y-185028628D01*
X198648628Y-186314342D02*
X198505771Y-186385771D01*
X198220057Y-186385771D01*
X198077200Y-186314342D01*
X198005771Y-186242914D01*
X197934342Y-186100057D01*
X197934342Y-185671485D01*
X198005771Y-185528628D01*
X198077200Y-185457200D01*
X198220057Y-185385771D01*
X198505771Y-185385771D01*
X198648628Y-185457200D01*
X199934342Y-186385771D02*
X199934342Y-185600057D01*
X199862914Y-185457200D01*
X199720057Y-185385771D01*
X199434342Y-185385771D01*
X199291485Y-185457200D01*
X199934342Y-186314342D02*
X199791485Y-186385771D01*
X199434342Y-186385771D01*
X199291485Y-186314342D01*
X199220057Y-186171485D01*
X199220057Y-186028628D01*
X199291485Y-185885771D01*
X199434342Y-185814342D01*
X199791485Y-185814342D01*
X199934342Y-185742914D01*
X201291485Y-186385771D02*
X201291485Y-184885771D01*
X201291485Y-186314342D02*
X201148628Y-186385771D01*
X200862914Y-186385771D01*
X200720057Y-186314342D01*
X200648628Y-186242914D01*
X200577200Y-186100057D01*
X200577200Y-185671485D01*
X200648628Y-185528628D01*
X200720057Y-185457200D01*
X200862914Y-185385771D01*
X201148628Y-185385771D01*
X201291485Y-185457200D01*
X201648628Y-186528628D02*
X202791485Y-186528628D01*
X203148628Y-185385771D02*
X203148628Y-186885771D01*
X203148628Y-185457200D02*
X203291485Y-185385771D01*
X203577200Y-185385771D01*
X203720057Y-185457200D01*
X203791485Y-185528628D01*
X203862914Y-185671485D01*
X203862914Y-186100057D01*
X203791485Y-186242914D01*
X203720057Y-186314342D01*
X203577200Y-186385771D01*
X203291485Y-186385771D01*
X203148628Y-186314342D01*
X205148628Y-186314342D02*
X205005771Y-186385771D01*
X204720057Y-186385771D01*
X204577200Y-186314342D01*
X204505771Y-186242914D01*
X204434342Y-186100057D01*
X204434342Y-185671485D01*
X204505771Y-185528628D01*
X204577200Y-185457200D01*
X204720057Y-185385771D01*
X205005771Y-185385771D01*
X205148628Y-185457200D01*
X205791485Y-186385771D02*
X205791485Y-184885771D01*
X205791485Y-185457200D02*
X205934342Y-185385771D01*
X206220057Y-185385771D01*
X206362914Y-185457200D01*
X206434342Y-185528628D01*
X206505771Y-185671485D01*
X206505771Y-186100057D01*
X206434342Y-186242914D01*
X206362914Y-186314342D01*
X206220057Y-186385771D01*
X205934342Y-186385771D01*
X205791485Y-186314342D01*
D10*
D11*
X177002200Y-181507200D02*
X285002200Y-181507200D01*
D10*
D11*
X178362914Y-183614342D02*
X178577200Y-183685771D01*
X178934342Y-183685771D01*
X179077200Y-183614342D01*
X179148628Y-183542914D01*
X179220057Y-183400057D01*
X179220057Y-183257200D01*
X179148628Y-183114342D01*
X179077200Y-183042914D01*
X178934342Y-182971485D01*
X178648628Y-182900057D01*
X178505771Y-182828628D01*
X178434342Y-182757200D01*
X178362914Y-182614342D01*
X178362914Y-182471485D01*
X178434342Y-182328628D01*
X178505771Y-182257200D01*
X178648628Y-182185771D01*
X179005771Y-182185771D01*
X179220057Y-182257200D01*
X179862914Y-183685771D02*
X179862914Y-182185771D01*
X180505771Y-183685771D02*
X180505771Y-182900057D01*
X180434342Y-182757200D01*
X180291485Y-182685771D01*
X180077200Y-182685771D01*
X179934342Y-182757200D01*
X179862914Y-182828628D01*
X181791485Y-183614342D02*
X181648628Y-183685771D01*
X181362914Y-183685771D01*
X181220057Y-183614342D01*
X181148628Y-183471485D01*
X181148628Y-182900057D01*
X181220057Y-182757200D01*
X181362914Y-182685771D01*
X181648628Y-182685771D01*
X181791485Y-182757200D01*
X181862914Y-182900057D01*
X181862914Y-183042914D01*
X181148628Y-183185771D01*
X183077200Y-183614342D02*
X182934342Y-183685771D01*
X182648628Y-183685771D01*
X182505771Y-183614342D01*
X182434342Y-183471485D01*
X182434342Y-182900057D01*
X182505771Y-182757200D01*
X182648628Y-182685771D01*
X182934342Y-182685771D01*
X183077200Y-182757200D01*
X183148628Y-182900057D01*
X183148628Y-183042914D01*
X182434342Y-183185771D01*
X183577200Y-182685771D02*
X184148628Y-182685771D01*
X183791485Y-182185771D02*
X183791485Y-183471485D01*
X183862914Y-183614342D01*
X184005771Y-183685771D01*
X184148628Y-183685771D01*
X184648628Y-183542914D02*
X184720057Y-183614342D01*
X184648628Y-183685771D01*
X184577200Y-183614342D01*
X184648628Y-183542914D01*
X184648628Y-183685771D01*
X184648628Y-182757200D02*
X184720057Y-182828628D01*
X184648628Y-182900057D01*
X184577200Y-182828628D01*
X184648628Y-182757200D01*
X184648628Y-182900057D01*
D10*
D11*
X197002200Y-191507200D02*
X197002200Y-194507200D01*
D10*
D11*
X261002200Y-191507200D02*
X261002200Y-198007200D01*
D14*
X143510000Y-131445000D03*
X226060000Y-131445000D03*
X143510000Y-54610000D03*
D15*
X180975000Y-83185000D03*
D16*
X183515000Y-83185000D03*
X183515000Y-97790000D03*
D15*
X180975000Y-97790000D03*
X199390000Y-83185000D03*
D16*
X201930000Y-83185000D03*
X201930000Y-98425000D03*
D15*
X199390000Y-98425000D03*
D17*
X215300000Y-109170000D03*
X215265000Y-93980000D03*
D18*
X210185000Y-97155000D03*
X212725000Y-98425000D03*
X210185000Y-99695000D03*
X212725000Y-100965000D03*
X210185000Y-102235000D03*
X212725000Y-103505000D03*
X210185000Y-104775000D03*
D19*
X212725000Y-106045000D03*
D20*
X219075000Y-107535000D03*
X219075000Y-95665000D03*
X219075000Y-76615000D03*
X219075000Y-88485000D03*
D19*
X212725000Y-86995000D03*
D18*
X210185000Y-85725000D03*
X212725000Y-84455000D03*
X210185000Y-83185000D03*
X212725000Y-81915000D03*
X210185000Y-80645000D03*
X212725000Y-79375000D03*
X210185000Y-78105000D03*
D17*
X215265000Y-74930000D03*
X215300000Y-90120000D03*
D20*
X187545000Y-123825000D03*
X175675000Y-123825000D03*
D19*
X177165000Y-117475000D03*
D18*
X178435000Y-114935000D03*
X179705000Y-117475000D03*
X180975000Y-114935000D03*
X182245000Y-117475000D03*
X183515000Y-114935000D03*
X184785000Y-117475000D03*
X186055000Y-114935000D03*
D17*
X189230000Y-120015000D03*
X174040000Y-120050000D03*
X189180000Y-66005000D03*
X173990000Y-66040000D03*
D18*
X177165000Y-71120000D03*
X178435000Y-68580000D03*
X179705000Y-71120000D03*
X180975000Y-68580000D03*
X182245000Y-71120000D03*
X183515000Y-68580000D03*
X184785000Y-71120000D03*
D19*
X186055000Y-68580000D03*
D20*
X187545000Y-62230000D03*
X175675000Y-62230000D03*
D21*
X160147000Y-115443000D03*
X160147000Y-119761000D03*
X160147000Y-124079000D03*
X160147000Y-128397000D03*
X164465000Y-119761000D03*
X164465000Y-124079000D03*
X164465000Y-128397000D03*
X168805000Y-98615000D03*
X164805000Y-98615000D03*
X160805000Y-98615000D03*
X154305000Y-98615000D03*
X150305000Y-98615000D03*
X146305000Y-98615000D03*
X142305000Y-98615000D03*
D20*
X206595000Y-123825000D03*
X194725000Y-123825000D03*
D19*
X196215000Y-117475000D03*
D18*
X197485000Y-114935000D03*
X198755000Y-117475000D03*
X200025000Y-114935000D03*
X201295000Y-117475000D03*
X202565000Y-114935000D03*
X203835000Y-117475000D03*
X205105000Y-114935000D03*
D17*
X208280000Y-120015000D03*
X193090000Y-120050000D03*
D21*
X160020000Y-57023000D03*
X160020000Y-61341000D03*
X160020000Y-65659000D03*
X164338000Y-57023000D03*
X164338000Y-61341000D03*
X164338000Y-65659000D03*
X164338000Y-69977000D03*
X142305000Y-83375000D03*
X146305000Y-83375000D03*
X150305000Y-83375000D03*
X154305000Y-83375000D03*
X160805000Y-83375000D03*
X164805000Y-83375000D03*
X168805000Y-83375000D03*
D17*
X208230000Y-66005000D03*
X193040000Y-66040000D03*
D18*
X196215000Y-71120000D03*
X197485000Y-68580000D03*
X198755000Y-71120000D03*
X200025000Y-68580000D03*
X201295000Y-71120000D03*
X202565000Y-68580000D03*
X203835000Y-71120000D03*
D19*
X205105000Y-68580000D03*
D20*
X206595000Y-62230000D03*
X194725000Y-62230000D03*
D22*
X191770000Y-90900000D03*
X194810000Y-90900000D03*
X191770000Y-93940000D03*
X188730000Y-90935000D03*
X191770000Y-87860000D03*
D14*
X226060000Y-54610000D03*
D23*
X142305000Y-86598800D02*
X143916900Y-84986900D01*
X142305000Y-98615000D02*
X142305000Y-86598800D01*
X142305000Y-83375000D02*
X143916900Y-84986900D01*
X181713100Y-84986900D02*
X183515000Y-83185000D01*
X143916900Y-84986900D02*
X181713100Y-84986900D01*
X192159700Y-92420000D02*
X198164700Y-98425000D01*
X190215000Y-92420000D02*
X192159700Y-92420000D01*
X188730000Y-90935000D02*
X190215000Y-92420000D01*
X199390000Y-98425000D02*
X198164700Y-98425000D01*
X170053000Y-69977000D02*
X173990000Y-66040000D01*
X164338000Y-69977000D02*
X170053000Y-69977000D01*
X215265000Y-102564100D02*
X215265000Y-93980000D01*
X212859400Y-104969700D02*
X215265000Y-102564100D01*
X212725000Y-104969700D02*
X212859400Y-104969700D01*
X212725000Y-106045000D02*
X212725000Y-104969700D01*
X178240300Y-117609400D02*
X178240300Y-117475000D01*
X180645900Y-120015000D02*
X178240300Y-117609400D01*
X189230000Y-120015000D02*
X180645900Y-120015000D01*
X177165000Y-117475000D02*
X178240300Y-117475000D01*
X205105000Y-68580000D02*
X204029700Y-68580000D01*
X204029700Y-68522600D02*
X204029700Y-68580000D01*
X201547100Y-66040000D02*
X204029700Y-68522600D01*
X193040000Y-66040000D02*
X201547100Y-66040000D01*
X160147000Y-107273000D02*
X160147000Y-115443000D01*
X168805000Y-98615000D02*
X160147000Y-107273000D01*
X187166000Y-113824000D02*
X186055000Y-114935000D01*
X203994000Y-113824000D02*
X187166000Y-113824000D01*
X205105000Y-114935000D02*
X203994000Y-113824000D01*
X184031100Y-112911100D02*
X186055000Y-114935000D01*
X166996900Y-112911100D02*
X184031100Y-112911100D01*
X160147000Y-119761000D02*
X166996900Y-112911100D01*
X201469600Y-116030400D02*
X202565000Y-114935000D01*
X184610400Y-116030400D02*
X201469600Y-116030400D01*
X183515000Y-114935000D02*
X184610400Y-116030400D01*
X181946200Y-113366200D02*
X183515000Y-114935000D01*
X174291300Y-113366200D02*
X181946200Y-113366200D01*
X165924100Y-121733400D02*
X174291300Y-113366200D01*
X162492500Y-121733400D02*
X165924100Y-121733400D01*
X162492500Y-121733500D02*
X162492500Y-121733400D01*
X160147000Y-124079000D02*
X162492500Y-121733500D01*
X211308000Y-102382000D02*
X212725000Y-100965000D01*
X211308000Y-110264000D02*
X211308000Y-102382000D01*
X205460400Y-116111600D02*
X211308000Y-110264000D01*
X202658400Y-116111600D02*
X205460400Y-116111600D01*
X201295000Y-117475000D02*
X202658400Y-116111600D01*
X181134300Y-116364300D02*
X182245000Y-117475000D01*
X176299100Y-116364300D02*
X181134300Y-116364300D01*
X175190300Y-117473100D02*
X176299100Y-116364300D01*
X175190200Y-117473100D02*
X175190300Y-117473100D01*
X173980000Y-117473100D02*
X175190200Y-117473100D01*
X167374100Y-124079000D02*
X173980000Y-117473100D01*
X164465000Y-124079000D02*
X167374100Y-124079000D01*
X197425300Y-121344700D02*
X201295000Y-117475000D01*
X179061800Y-121344700D02*
X197425300Y-121344700D01*
X175190300Y-117473100D02*
X179061800Y-121344700D01*
X160147000Y-126310900D02*
X160147000Y-128397000D01*
X154305000Y-120468900D02*
X160147000Y-126310900D01*
X154305000Y-98615000D02*
X154305000Y-120468900D01*
X162359300Y-124098600D02*
X160147000Y-126310900D01*
X162359300Y-123944400D02*
X162359300Y-124098600D01*
X164119900Y-122183800D02*
X162359300Y-123944400D01*
X167914900Y-122183800D02*
X164119900Y-122183800D01*
X176282100Y-113816600D02*
X167914900Y-122183800D01*
X179856600Y-113816600D02*
X176282100Y-113816600D01*
X180975000Y-114935000D02*
X179856600Y-113816600D01*
X197679600Y-118550400D02*
X198755000Y-117475000D01*
X180780400Y-118550400D02*
X197679600Y-118550400D01*
X179705000Y-117475000D02*
X180780400Y-118550400D01*
X194664400Y-93794400D02*
X202115600Y-93794400D01*
X191770000Y-90900000D02*
X194664400Y-93794400D01*
X210185000Y-85725000D02*
X202115600Y-93794400D01*
X202115600Y-96705600D02*
X210185000Y-104775000D01*
X202115600Y-93794400D02*
X202115600Y-96705600D01*
X202844800Y-68580000D02*
X202565000Y-68580000D01*
X211751100Y-77486300D02*
X202844800Y-68580000D01*
X211751100Y-78828000D02*
X211751100Y-77486300D01*
X211598100Y-78981000D02*
X211751100Y-78828000D01*
X211598100Y-83328100D02*
X211598100Y-78981000D01*
X212725000Y-84455000D02*
X211598100Y-83328100D01*
X200219600Y-70044600D02*
X201295000Y-71120000D01*
X183320400Y-70044600D02*
X200219600Y-70044600D01*
X182245000Y-71120000D02*
X183320400Y-70044600D01*
X178491200Y-66096200D02*
X180975000Y-68580000D01*
X175850000Y-66096200D02*
X178491200Y-66096200D01*
X173253800Y-63500000D02*
X175850000Y-66096200D01*
X162179000Y-63500000D02*
X173253800Y-63500000D01*
X160020000Y-61341000D02*
X162179000Y-63500000D01*
X182050400Y-67504600D02*
X180975000Y-68580000D01*
X198949600Y-67504600D02*
X182050400Y-67504600D01*
X200025000Y-68580000D02*
X198949600Y-67504600D01*
X177525700Y-73299300D02*
X179705000Y-71120000D01*
X160380700Y-73299300D02*
X177525700Y-73299300D01*
X150305000Y-83375000D02*
X160380700Y-73299300D01*
X210185000Y-80645000D02*
X210185000Y-79544200D01*
X188129200Y-79544200D02*
X210185000Y-79544200D01*
X179705000Y-71120000D02*
X188129200Y-79544200D01*
X202102700Y-74467700D02*
X198755000Y-71120000D01*
X208079300Y-74467700D02*
X202102700Y-74467700D01*
X211280200Y-77668600D02*
X208079300Y-74467700D01*
X211280200Y-78562700D02*
X211280200Y-77668600D01*
X210298700Y-79544200D02*
X211280200Y-78562700D01*
X210185000Y-79544200D02*
X210298700Y-79544200D01*
X203200000Y-78105000D02*
X196215000Y-71120000D01*
X210185000Y-78105000D02*
X203200000Y-78105000D01*
X146622000Y-83375000D02*
X164338000Y-65659000D01*
X146305000Y-83375000D02*
X146622000Y-83375000D01*
X195139600Y-72195400D02*
X196215000Y-71120000D01*
X181752600Y-72195400D02*
X195139600Y-72195400D01*
X180975000Y-71417800D02*
X181752600Y-72195400D01*
X180975000Y-70859100D02*
X180975000Y-71417800D01*
X180139500Y-70023600D02*
X180975000Y-70859100D01*
X178261400Y-70023600D02*
X180139500Y-70023600D01*
X177165000Y-71120000D02*
X178261400Y-70023600D01*
M02*
