EESchema Schematic File Version 2
LIBS:power
LIBS:device
LIBS:transistors
LIBS:conn
LIBS:linear
LIBS:regul
LIBS:74xx
LIBS:cmos4000
LIBS:adc-dac
LIBS:memory
LIBS:xilinx
LIBS:microcontrollers
LIBS:dsp
LIBS:microchip
LIBS:analog_switches
LIBS:motorola
LIBS:texas
LIBS:intel
LIBS:audio
LIBS:interface
LIBS:digital-audio
LIBS:philips
LIBS:display
LIBS:cypress
LIBS:siliconi
LIBS:opto
LIBS:atmel
LIBS:contrib
LIBS:valves
LIBS:pupvisual-cache
EELAYER 26 0
EELAYER END
$Descr A4 11693 8268
encoding utf-8
Sheet 1 1
Title ""
Date ""
Rev ""
Comp ""
Comment1 ""
Comment2 ""
Comment3 ""
Comment4 ""
$EndDescr
$Comp
L LED_ALT RT1
U 1 1 5947F907
P 5200 4950
F 0 "RT1" H 5200 5050 50  0000 C CNN
F 1 "LED" H 5200 4850 50  0000 C CNN
F 2 "" H 5200 4950 50  0001 C CNN
F 3 "" H 5200 4950 50  0001 C CNN
	1    5200 4950
	-1   0    0    1   
$EndComp
$Comp
L LED_ALT UP1
U 1 1 5947FB33
P 4950 4700
F 0 "UP1" H 4950 4800 50  0000 C CNN
F 1 "LED" H 4950 4600 50  0000 C CNN
F 2 "" H 4950 4700 50  0001 C CNN
F 3 "" H 4950 4700 50  0001 C CNN
	1    4950 4700
	0    1    1    0   
$EndComp
$Comp
L LED_ALT DN1
U 1 1 5947FB9C
P 4950 5200
F 0 "DN1" H 4950 5300 50  0000 C CNN
F 1 "LED" H 4950 5100 50  0000 C CNN
F 2 "" H 4950 5200 50  0001 C CNN
F 3 "" H 4950 5200 50  0001 C CNN
	1    4950 5200
	0    -1   -1   0   
$EndComp
$Comp
L LED_ALT LT1
U 1 1 5947FC28
P 4700 4950
F 0 "LT1" H 4700 5050 50  0000 C CNN
F 1 "LED" H 4700 4850 50  0000 C CNN
F 2 "" H 4700 4950 50  0001 C CNN
F 3 "" H 4700 4950 50  0001 C CNN
	1    4700 4950
	1    0    0    -1  
$EndComp
$Comp
L LED_ALT B1
U 1 1 594801F1
P 6650 4850
F 0 "B1" H 6650 4950 50  0000 C CNN
F 1 "LED" H 6650 4750 50  0000 C CNN
F 2 "" H 6650 4850 50  0001 C CNN
F 3 "" H 6650 4850 50  0001 C CNN
	1    6650 4850
	1    0    0    -1  
$EndComp
$Comp
L LED_ALT A1
U 1 1 594801F8
P 7050 4850
F 0 "A1" H 7050 4950 50  0000 C CNN
F 1 "LED" H 7050 4750 50  0000 C CNN
F 2 "" H 7050 4850 50  0001 C CNN
F 3 "" H 7050 4850 50  0001 C CNN
	1    7050 4850
	1    0    0    -1  
$EndComp
$Comp
L LED_ALT ST1
U 1 1 5948055D
P 5850 5150
F 0 "ST1" H 5850 5250 50  0000 C CNN
F 1 "LED" H 5850 5050 50  0000 C CNN
F 2 "" H 5850 5150 50  0001 C CNN
F 3 "" H 5850 5150 50  0001 C CNN
	1    5850 5150
	1    0    0    -1  
$EndComp
$Comp
L LED_ALT SL1
U 1 1 59480564
P 6250 5150
F 0 "SL1" H 6250 5250 50  0000 C CNN
F 1 "LED" H 6250 5050 50  0000 C CNN
F 2 "" H 6250 5150 50  0001 C CNN
F 3 "" H 6250 5150 50  0001 C CNN
	1    6250 5150
	1    0    0    -1  
$EndComp
$Comp
L GND #PWR1
U 1 1 5948094A
P 4750 5500
F 0 "#PWR1" H 4750 5250 50  0001 C CNN
F 1 "GND" H 4750 5350 50  0000 C CNN
F 2 "" H 4750 5500 50  0001 C CNN
F 3 "" H 4750 5500 50  0001 C CNN
	1    4750 5500
	1    0    0    -1  
$EndComp
$Comp
L R_Small R5
U 1 1 5948123F
P 5700 4700
F 0 "R5" H 5730 4720 50  0000 L CNN
F 1 "220" H 5730 4660 50  0000 L CNN
F 2 "" H 5700 4700 50  0001 C CNN
F 3 "" H 5700 4700 50  0001 C CNN
	1    5700 4700
	-1   0    0    1   
$EndComp
$Comp
L R_Small R6
U 1 1 5948131E
P 6100 4700
F 0 "R6" H 6130 4720 50  0000 L CNN
F 1 "220" H 6130 4660 50  0000 L CNN
F 2 "" H 6100 4700 50  0001 C CNN
F 3 "" H 6100 4700 50  0001 C CNN
	1    6100 4700
	-1   0    0    1   
$EndComp
$Comp
L R_Small R7
U 1 1 59481387
P 6500 4600
F 0 "R7" H 6530 4620 50  0000 L CNN
F 1 "220" H 6530 4560 50  0000 L CNN
F 2 "" H 6500 4600 50  0001 C CNN
F 3 "" H 6500 4600 50  0001 C CNN
	1    6500 4600
	-1   0    0    1   
$EndComp
$Comp
L R_Small R8
U 1 1 59481405
P 6900 4600
F 0 "R8" H 6930 4620 50  0000 L CNN
F 1 "220" H 6930 4560 50  0000 L CNN
F 2 "" H 6900 4600 50  0001 C CNN
F 3 "" H 6900 4600 50  0001 C CNN
	1    6900 4600
	-1   0    0    1   
$EndComp
$Comp
L R_Small R2
U 1 1 59481450
P 4700 4550
F 0 "R2" H 4730 4570 50  0000 L CNN
F 1 "220" H 4730 4510 50  0000 L CNN
F 2 "" H 4700 4550 50  0001 C CNN
F 3 "" H 4700 4550 50  0001 C CNN
	1    4700 4550
	0    -1   -1   0   
$EndComp
$Comp
L R_Small R4
U 1 1 594814B0
P 5350 4700
F 0 "R4" H 5380 4720 50  0000 L CNN
F 1 "220" H 5380 4660 50  0000 L CNN
F 2 "" H 5350 4700 50  0001 C CNN
F 3 "" H 5350 4700 50  0001 C CNN
	1    5350 4700
	-1   0    0    1   
$EndComp
$Comp
L R_Small R3
U 1 1 59481503
P 4700 5350
F 0 "R3" H 4730 5370 50  0000 L CNN
F 1 "220" H 4730 5310 50  0000 L CNN
F 2 "" H 4700 5350 50  0001 C CNN
F 3 "" H 4700 5350 50  0001 C CNN
	1    4700 5350
	0    1    1    0   
$EndComp
$Comp
L R_Small R1
U 1 1 5948157D
P 4350 4950
F 0 "R1" H 4380 4970 50  0000 L CNN
F 1 "220" H 4380 4910 50  0000 L CNN
F 2 "" H 4350 4950 50  0001 C CNN
F 3 "" H 4350 4950 50  0001 C CNN
	1    4350 4950
	0    -1   -1   0   
$EndComp
$Comp
L CONN_01X08 J1
U 1 1 59481659
P 3550 4900
F 0 "J1" H 3550 5350 50  0000 C CNN
F 1 "CONN_GPIO_01" V 3650 4900 50  0000 C CNN
F 2 "" H 3550 4900 50  0001 C CNN
F 3 "" H 3550 4900 50  0001 C CNN
	1    3550 4900
	-1   0    0    1   
$EndComp
Wire Wire Line
	4850 4950 5050 4950
Wire Wire Line
	4950 4850 4950 5050
Connection ~ 4950 4950
Connection ~ 5050 4950
Wire Wire Line
	5050 4950 5050 5100
Wire Wire Line
	5050 5100 5250 5100
Wire Wire Line
	5250 5100 5250 5500
Wire Wire Line
	4750 5500 7200 5500
Wire Wire Line
	6000 5500 6000 5150
Connection ~ 5250 5500
Wire Wire Line
	6400 5500 6400 5150
Connection ~ 6000 5500
Wire Wire Line
	6800 5500 6800 4850
Connection ~ 6400 5500
Wire Wire Line
	7200 5500 7200 4850
Connection ~ 6800 5500
Wire Wire Line
	4450 4950 4550 4950
Wire Wire Line
	4800 4550 4950 4550
Wire Wire Line
	4950 5350 4800 5350
Wire Wire Line
	5350 4800 5350 4800
Wire Wire Line
	5350 4800 5350 4950
Wire Wire Line
	5700 4800 5700 5150
Wire Wire Line
	6100 4800 6100 5150
Wire Wire Line
	6500 4700 6500 4850
Wire Wire Line
	6900 4700 6900 4850
Wire Wire Line
	4250 4950 4250 5150
Wire Wire Line
	4250 5150 3750 5150
Wire Wire Line
	4600 4550 4200 4550
Wire Wire Line
	4200 4550 4200 5050
Wire Wire Line
	4200 5050 3750 5050
Wire Wire Line
	3750 4950 4150 4950
Wire Wire Line
	4150 4950 4150 4350
Wire Wire Line
	4150 4350 5350 4350
Wire Wire Line
	5350 4350 5350 4600
Wire Wire Line
	5700 4600 5700 4300
Wire Wire Line
	5700 4300 4100 4300
Wire Wire Line
	4100 4300 4100 4850
Wire Wire Line
	4100 4850 3750 4850
Wire Wire Line
	3750 4750 4050 4750
Wire Wire Line
	4050 4750 4050 4250
Wire Wire Line
	4050 4250 6100 4250
Wire Wire Line
	6100 4250 6100 4600
Wire Wire Line
	3750 4650 4000 4650
Wire Wire Line
	4000 4650 4000 4200
Wire Wire Line
	4000 4200 6500 4200
Wire Wire Line
	6500 4200 6500 4500
Wire Wire Line
	6900 4500 6900 4150
Wire Wire Line
	6900 4150 3950 4150
Wire Wire Line
	3950 4150 3950 4550
Wire Wire Line
	3950 4550 3750 4550
Wire Wire Line
	4600 5350 4250 5350
Wire Wire Line
	4250 5350 4250 5250
Wire Wire Line
	4250 5250 3750 5250
$EndSCHEMATC
