(module nes_ctrl (layer F.Cu) (tedit 5AD54EB5)
  (tags nes_ctrl)
  (fp_text reference REF** (at 0 -3.81) (layer F.SilkS)
    (effects (font (size 1 1) (thickness 0.15)))
  )
  (fp_text value NES_CTRL (at 0 -2.54) (layer F.Fab)
    (effects (font (size 1 1) (thickness 0.15)))
  )
  (fp_text user GND (at -8.915 4.11) (layer F.SilkS)
    (effects (font (size 1 1) (thickness 0.15)))
  )
  (fp_text user CLK (at -8.815 8.92) (layer F.SilkS)
    (effects (font (size 1 1) (thickness 0.15)))
  )
  (fp_text user LAT (at -9.215 13.03) (layer F.SilkS)
    (effects (font (size 1 1) (thickness 0.15)))
  )
  (fp_text user D0 (at -8.915 17.14) (layer F.SilkS)
    (effects (font (size 1 1) (thickness 0.15)))
  )
  (fp_text user +5V (at 4.52 8.72) (layer F.SilkS)
    (effects (font (size 1 1) (thickness 0.15)))
  )
  (fp_text user D3 (at 4.02 13.23) (layer F.SilkS)
    (effects (font (size 1 1) (thickness 0.15)))
  )
  (fp_text user D4 (at 3.92 17.04) (layer F.SilkS)
    (effects (font (size 1 1) (thickness 0.15)))
  )
  (fp_text user GND (at -8.915 4.11) (layer B.SilkS)
    (effects (font (size 1 1) (thickness 0.15)) (justify mirror))
  )
  (fp_text user CLK (at -8.815 8.92) (layer B.SilkS)
    (effects (font (size 1 1) (thickness 0.15)) (justify mirror))
  )
  (fp_text user LAT (at -9.215 13.03) (layer B.SilkS)
    (effects (font (size 1 1) (thickness 0.15)) (justify mirror))
  )
  (fp_text user D0 (at -8.915 17.14) (layer B.SilkS)
    (effects (font (size 1 1) (thickness 0.15)) (justify mirror))
  )
  (fp_text user +5V (at 4.52 8.72) (layer B.SilkS)
    (effects (font (size 1 1) (thickness 0.15)) (justify mirror))
  )
  (fp_text user D3 (at 4.02 13.23) (layer B.SilkS)
    (effects (font (size 1 1) (thickness 0.15)) (justify mirror))
  )
  (fp_text user D4 (at 3.92 17.04) (layer B.SilkS)
    (effects (font (size 1 1) (thickness 0.15)) (justify mirror))
  )
  (fp_line (start -7.1 20) (end 2 20) (layer F.SilkS) (width 0.15))
  (fp_line (start 2 20) (end 2 6) (layer F.SilkS) (width 0.15))
  (fp_line (start 2 6) (end -3 2) (layer F.SilkS) (width 0.15))
  (fp_line (start -3.1 2) (end -7 2) (layer F.SilkS) (width 0.15))
  (fp_line (start -7 2) (end -7 20) (layer F.SilkS) (width 0.15))
  (fp_line (start -7 2) (end -3 2) (layer B.SilkS) (width 0.15))
  (fp_line (start -3 2) (end 2 6) (layer B.SilkS) (width 0.15))
  (fp_line (start 2 6) (end 2 20) (layer B.SilkS) (width 0.15))
  (fp_line (start 2 20) (end -6.9 20) (layer B.SilkS) (width 0.15))
  (fp_line (start -6.9 20) (end -7 2.1) (layer B.SilkS) (width 0.15))
  (pad 7 thru_hole circle (at 0 17.272) (size 2.5 2.5) (drill 1.25) (layers *.Cu *.Mask))
  (pad 6 thru_hole circle (at 0 12.954) (size 2.5 2.5) (drill 1.25) (layers *.Cu *.Mask))
  (pad 5 thru_hole circle (at 0 8.636) (size 2.5 2.5) (drill 1.25) (layers *.Cu *.Mask))
  (pad 4 thru_hole circle (at -4.318 17.272) (size 2.5 2.5) (drill 1.25) (layers *.Cu *.Mask))
  (pad 3 thru_hole circle (at -4.318 12.954) (size 2.5 2.5) (drill 1.25) (layers *.Cu *.Mask))
  (pad 2 thru_hole circle (at -4.318 8.636) (size 2.5 2.5) (drill 1.25) (layers *.Cu *.Mask))
  (pad 1 thru_hole circle (at -4.318 4.318) (size 2.5 2.5) (drill 1.25) (layers *.Cu *.Mask))
)
