(kicad_pcb (version 20171130) (host pcbnew "(5.0.0-rc2-dev-96-g5bbb4489b)")

  (general
    (thickness 1.6)
    (drawings 18)
    (tracks 272)
    (zones 0)
    (modules 19)
    (nets 27)
  )

  (page A4)
  (layers
    (0 F.Cu signal)
    (31 B.Cu signal)
    (32 B.Adhes user)
    (33 F.Adhes user)
    (34 B.Paste user)
    (35 F.Paste user)
    (36 B.SilkS user)
    (37 F.SilkS user)
    (38 B.Mask user)
    (39 F.Mask user)
    (40 Dwgs.User user)
    (41 Cmts.User user)
    (42 Eco1.User user)
    (43 Eco2.User user)
    (44 Edge.Cuts user)
    (45 Margin user)
    (46 B.CrtYd user)
    (47 F.CrtYd user)
    (48 B.Fab user)
    (49 F.Fab user)
  )

  (setup
    (last_trace_width 0.25)
    (trace_clearance 0.2)
    (zone_clearance 0.508)
    (zone_45_only no)
    (trace_min 0.2)
    (segment_width 0.2)
    (edge_width 0.1)
    (via_size 0.8)
    (via_drill 0.4)
    (via_min_size 0.4)
    (via_min_drill 0.3)
    (uvia_size 0.3)
    (uvia_drill 0.1)
    (uvias_allowed no)
    (uvia_min_size 0.2)
    (uvia_min_drill 0.1)
    (pcb_text_width 0.3)
    (pcb_text_size 1.5 1.5)
    (mod_edge_width 0.15)
    (mod_text_size 1 1)
    (mod_text_width 0.15)
    (pad_size 1.5 1.5)
    (pad_drill 0.6)
    (pad_to_mask_clearance 0)
    (aux_axis_origin 0 0)
    (visible_elements 7FFFFFFF)
    (pcbplotparams
      (layerselection 0x010fc_ffffffff)
      (usegerberextensions false)
      (usegerberattributes false)
      (usegerberadvancedattributes false)
      (creategerberjobfile false)
      (excludeedgelayer true)
      (linewidth 0.100000)
      (plotframeref false)
      (viasonmask false)
      (mode 1)
      (useauxorigin false)
      (hpglpennumber 1)
      (hpglpenspeed 20)
      (hpglpendiameter 15)
      (psnegative false)
      (psa4output false)
      (plotreference true)
      (plotvalue true)
      (plotinvisibletext false)
      (padsonsilk false)
      (subtractmaskfromsilk false)
      (outputformat 1)
      (mirror false)
      (drillshape 1)
      (scaleselection 1)
      (outputdirectory ""))
  )

  (net 0 "")
  (net 1 "Net-(D1-Pad1)")
  (net 2 "Net-(D1-Pad2)")
  (net 3 "Net-(D2-Pad2)")
  (net 4 "Net-(D2-Pad1)")
  (net 5 "Net-(D3-Pad1)")
  (net 6 "Net-(D3-Pad2)")
  (net 7 "Net-(D4-Pad2)")
  (net 8 "Net-(D4-Pad1)")
  (net 9 GND)
  (net 10 "Net-(O1-Pad8)")
  (net 11 "Net-(O1-Pad7)")
  (net 12 "Net-(O1-Pad6)")
  (net 13 "Net-(O1-Pad5)")
  (net 14 "Net-(O1-Pad4)")
  (net 15 "Net-(O1-Pad3)")
  (net 16 "Net-(O1-Pad2)")
  (net 17 "Net-(O2-Pad3)")
  (net 18 "Net-(O2-Pad4)")
  (net 19 "Net-(O2-Pad5)")
  (net 20 "Net-(O2-Pad6)")
  (net 21 "Net-(O2-Pad7)")
  (net 22 "Net-(O2-Pad8)")
  (net 23 "Net-(P1-Pad7)")
  (net 24 "Net-(P2-Pad7)")
  (net 25 "Net-(P13-Pad7)")
  (net 26 "Net-(P23-Pad7)")

  (net_class Default "This is the default net class."
    (clearance 0.2)
    (trace_width 0.25)
    (via_dia 0.8)
    (via_drill 0.4)
    (uvia_dia 0.3)
    (uvia_drill 0.1)
    (add_net GND)
    (add_net "Net-(D1-Pad1)")
    (add_net "Net-(D1-Pad2)")
    (add_net "Net-(D2-Pad1)")
    (add_net "Net-(D2-Pad2)")
    (add_net "Net-(D3-Pad1)")
    (add_net "Net-(D3-Pad2)")
    (add_net "Net-(D4-Pad1)")
    (add_net "Net-(D4-Pad2)")
    (add_net "Net-(O1-Pad2)")
    (add_net "Net-(O1-Pad3)")
    (add_net "Net-(O1-Pad4)")
    (add_net "Net-(O1-Pad5)")
    (add_net "Net-(O1-Pad6)")
    (add_net "Net-(O1-Pad7)")
    (add_net "Net-(O1-Pad8)")
    (add_net "Net-(O2-Pad3)")
    (add_net "Net-(O2-Pad4)")
    (add_net "Net-(O2-Pad5)")
    (add_net "Net-(O2-Pad6)")
    (add_net "Net-(O2-Pad7)")
    (add_net "Net-(O2-Pad8)")
    (add_net "Net-(P1-Pad7)")
    (add_net "Net-(P13-Pad7)")
    (add_net "Net-(P2-Pad7)")
    (add_net "Net-(P23-Pad7)")
  )

  (module "NES_CTRL:Lego pip" (layer F.Cu) (tedit 5AD81AF0) (tstamp 5ADCF3AA)
    (at 143.51 127)
    (fp_text reference "" (at 0 0.5) (layer F.SilkS) hide
      (effects (font (size 1 1) (thickness 0.15)))
    )
    (fp_text value "Lego pip" (at 0 -1.27) (layer F.Fab)
      (effects (font (size 1 1) (thickness 0.15)))
    )
    (fp_circle (center 0 4.445) (end 3.175 3.81) (layer B.SilkS) (width 0.15))
    (pad "" thru_hole circle (at 0 4.445) (size 6.5 6.5) (drill 4.8) (layers *.Cu *.Mask))
  )

  (module "NES_CTRL:Lego pip" (layer F.Cu) (tedit 5AD81AF0) (tstamp 5ADCF3A0)
    (at 226.06 127)
    (fp_text reference "" (at 0 0.5) (layer F.SilkS) hide
      (effects (font (size 1 1) (thickness 0.15)))
    )
    (fp_text value "Lego pip" (at 0 -1.27) (layer F.Fab)
      (effects (font (size 1 1) (thickness 0.15)))
    )
    (fp_circle (center 0 4.445) (end 3.175 3.81) (layer B.SilkS) (width 0.15))
    (pad "" thru_hole circle (at 0 4.445) (size 6.5 6.5) (drill 4.8) (layers *.Cu *.Mask))
  )

  (module "NES_CTRL:Lego pip" (layer F.Cu) (tedit 5AD81AF0) (tstamp 5ADCFE1E)
    (at 143.51 50.165)
    (fp_text reference "" (at 0 0.5) (layer F.SilkS) hide
      (effects (font (size 1 1) (thickness 0.15)))
    )
    (fp_text value "Lego pip" (at 0 -1.27) (layer F.Fab)
      (effects (font (size 1 1) (thickness 0.15)))
    )
    (fp_circle (center 0 4.445) (end 3.175 3.81) (layer B.SilkS) (width 0.15))
    (pad "" thru_hole circle (at 0 4.445) (size 6.5 6.5) (drill 4.8) (layers *.Cu *.Mask))
  )

  (module LED_THT:LED_D3.0mm (layer F.Cu) (tedit 587A3A7B) (tstamp 5ADCEF0C)
    (at 180.975 83.185)
    (descr "LED, diameter 3.0mm, 2 pins")
    (tags "LED diameter 3.0mm 2 pins")
    (path /5AA9B610)
    (fp_text reference D1 (at 1.27 -2.96) (layer F.SilkS)
      (effects (font (size 1 1) (thickness 0.15)))
    )
    (fp_text value LED_Small (at 1.27 2.96) (layer F.Fab)
      (effects (font (size 1 1) (thickness 0.15)))
    )
    (fp_arc (start 1.27 0) (end -0.23 -1.16619) (angle 284.3) (layer F.Fab) (width 0.1))
    (fp_arc (start 1.27 0) (end -0.29 -1.235516) (angle 108.8) (layer F.SilkS) (width 0.12))
    (fp_arc (start 1.27 0) (end -0.29 1.235516) (angle -108.8) (layer F.SilkS) (width 0.12))
    (fp_arc (start 1.27 0) (end 0.229039 -1.08) (angle 87.9) (layer F.SilkS) (width 0.12))
    (fp_arc (start 1.27 0) (end 0.229039 1.08) (angle -87.9) (layer F.SilkS) (width 0.12))
    (fp_circle (center 1.27 0) (end 2.77 0) (layer F.Fab) (width 0.1))
    (fp_line (start -0.23 -1.16619) (end -0.23 1.16619) (layer F.Fab) (width 0.1))
    (fp_line (start -0.29 -1.236) (end -0.29 -1.08) (layer F.SilkS) (width 0.12))
    (fp_line (start -0.29 1.08) (end -0.29 1.236) (layer F.SilkS) (width 0.12))
    (fp_line (start -1.15 -2.25) (end -1.15 2.25) (layer F.CrtYd) (width 0.05))
    (fp_line (start -1.15 2.25) (end 3.7 2.25) (layer F.CrtYd) (width 0.05))
    (fp_line (start 3.7 2.25) (end 3.7 -2.25) (layer F.CrtYd) (width 0.05))
    (fp_line (start 3.7 -2.25) (end -1.15 -2.25) (layer F.CrtYd) (width 0.05))
    (pad 1 thru_hole rect (at 0 0) (size 1.8 1.8) (drill 0.9) (layers *.Cu *.Mask)
      (net 1 "Net-(D1-Pad1)"))
    (pad 2 thru_hole circle (at 2.54 0) (size 1.8 1.8) (drill 0.9) (layers *.Cu *.Mask)
      (net 2 "Net-(D1-Pad2)"))
    (model ${KISYS3DMOD}/LED_THT.3dshapes/LED_D3.0mm.wrl
      (at (xyz 0 0 0))
      (scale (xyz 1 1 1))
      (rotate (xyz 0 0 0))
    )
  )

  (module LED_THT:LED_D3.0mm (layer F.Cu) (tedit 587A3A7B) (tstamp 5ADCEF1F)
    (at 180.975 97.79)
    (descr "LED, diameter 3.0mm, 2 pins")
    (tags "LED diameter 3.0mm 2 pins")
    (path /5AA9B78A)
    (fp_text reference D2 (at 1.27 -2.96) (layer F.SilkS)
      (effects (font (size 1 1) (thickness 0.15)))
    )
    (fp_text value LED_Small (at 1.27 2.96) (layer F.Fab)
      (effects (font (size 1 1) (thickness 0.15)))
    )
    (fp_line (start 3.7 -2.25) (end -1.15 -2.25) (layer F.CrtYd) (width 0.05))
    (fp_line (start 3.7 2.25) (end 3.7 -2.25) (layer F.CrtYd) (width 0.05))
    (fp_line (start -1.15 2.25) (end 3.7 2.25) (layer F.CrtYd) (width 0.05))
    (fp_line (start -1.15 -2.25) (end -1.15 2.25) (layer F.CrtYd) (width 0.05))
    (fp_line (start -0.29 1.08) (end -0.29 1.236) (layer F.SilkS) (width 0.12))
    (fp_line (start -0.29 -1.236) (end -0.29 -1.08) (layer F.SilkS) (width 0.12))
    (fp_line (start -0.23 -1.16619) (end -0.23 1.16619) (layer F.Fab) (width 0.1))
    (fp_circle (center 1.27 0) (end 2.77 0) (layer F.Fab) (width 0.1))
    (fp_arc (start 1.27 0) (end 0.229039 1.08) (angle -87.9) (layer F.SilkS) (width 0.12))
    (fp_arc (start 1.27 0) (end 0.229039 -1.08) (angle 87.9) (layer F.SilkS) (width 0.12))
    (fp_arc (start 1.27 0) (end -0.29 1.235516) (angle -108.8) (layer F.SilkS) (width 0.12))
    (fp_arc (start 1.27 0) (end -0.29 -1.235516) (angle 108.8) (layer F.SilkS) (width 0.12))
    (fp_arc (start 1.27 0) (end -0.23 -1.16619) (angle 284.3) (layer F.Fab) (width 0.1))
    (pad 2 thru_hole circle (at 2.54 0) (size 1.8 1.8) (drill 0.9) (layers *.Cu *.Mask)
      (net 3 "Net-(D2-Pad2)"))
    (pad 1 thru_hole rect (at 0 0) (size 1.8 1.8) (drill 0.9) (layers *.Cu *.Mask)
      (net 4 "Net-(D2-Pad1)"))
    (model ${KISYS3DMOD}/LED_THT.3dshapes/LED_D3.0mm.wrl
      (at (xyz 0 0 0))
      (scale (xyz 1 1 1))
      (rotate (xyz 0 0 0))
    )
  )

  (module LED_THT:LED_D3.0mm (layer F.Cu) (tedit 587A3A7B) (tstamp 5ADCEF32)
    (at 199.39 83.185)
    (descr "LED, diameter 3.0mm, 2 pins")
    (tags "LED diameter 3.0mm 2 pins")
    (path /5AA9B7D9)
    (fp_text reference D3 (at 1.27 -2.96) (layer F.SilkS)
      (effects (font (size 1 1) (thickness 0.15)))
    )
    (fp_text value LED_Small (at 1.27 2.96) (layer F.Fab)
      (effects (font (size 1 1) (thickness 0.15)))
    )
    (fp_arc (start 1.27 0) (end -0.23 -1.16619) (angle 284.3) (layer F.Fab) (width 0.1))
    (fp_arc (start 1.27 0) (end -0.29 -1.235516) (angle 108.8) (layer F.SilkS) (width 0.12))
    (fp_arc (start 1.27 0) (end -0.29 1.235516) (angle -108.8) (layer F.SilkS) (width 0.12))
    (fp_arc (start 1.27 0) (end 0.229039 -1.08) (angle 87.9) (layer F.SilkS) (width 0.12))
    (fp_arc (start 1.27 0) (end 0.229039 1.08) (angle -87.9) (layer F.SilkS) (width 0.12))
    (fp_circle (center 1.27 0) (end 2.77 0) (layer F.Fab) (width 0.1))
    (fp_line (start -0.23 -1.16619) (end -0.23 1.16619) (layer F.Fab) (width 0.1))
    (fp_line (start -0.29 -1.236) (end -0.29 -1.08) (layer F.SilkS) (width 0.12))
    (fp_line (start -0.29 1.08) (end -0.29 1.236) (layer F.SilkS) (width 0.12))
    (fp_line (start -1.15 -2.25) (end -1.15 2.25) (layer F.CrtYd) (width 0.05))
    (fp_line (start -1.15 2.25) (end 3.7 2.25) (layer F.CrtYd) (width 0.05))
    (fp_line (start 3.7 2.25) (end 3.7 -2.25) (layer F.CrtYd) (width 0.05))
    (fp_line (start 3.7 -2.25) (end -1.15 -2.25) (layer F.CrtYd) (width 0.05))
    (pad 1 thru_hole rect (at 0 0) (size 1.8 1.8) (drill 0.9) (layers *.Cu *.Mask)
      (net 5 "Net-(D3-Pad1)"))
    (pad 2 thru_hole circle (at 2.54 0) (size 1.8 1.8) (drill 0.9) (layers *.Cu *.Mask)
      (net 6 "Net-(D3-Pad2)"))
    (model ${KISYS3DMOD}/LED_THT.3dshapes/LED_D3.0mm.wrl
      (at (xyz 0 0 0))
      (scale (xyz 1 1 1))
      (rotate (xyz 0 0 0))
    )
  )

  (module LED_THT:LED_D3.0mm (layer F.Cu) (tedit 587A3A7B) (tstamp 5ADCEF45)
    (at 199.39 98.425)
    (descr "LED, diameter 3.0mm, 2 pins")
    (tags "LED diameter 3.0mm 2 pins")
    (path /5AA9B807)
    (fp_text reference D4 (at 1.27 -2.96) (layer F.SilkS)
      (effects (font (size 1 1) (thickness 0.15)))
    )
    (fp_text value LED_Small (at 1.27 2.96) (layer F.Fab)
      (effects (font (size 1 1) (thickness 0.15)))
    )
    (fp_line (start 3.7 -2.25) (end -1.15 -2.25) (layer F.CrtYd) (width 0.05))
    (fp_line (start 3.7 2.25) (end 3.7 -2.25) (layer F.CrtYd) (width 0.05))
    (fp_line (start -1.15 2.25) (end 3.7 2.25) (layer F.CrtYd) (width 0.05))
    (fp_line (start -1.15 -2.25) (end -1.15 2.25) (layer F.CrtYd) (width 0.05))
    (fp_line (start -0.29 1.08) (end -0.29 1.236) (layer F.SilkS) (width 0.12))
    (fp_line (start -0.29 -1.236) (end -0.29 -1.08) (layer F.SilkS) (width 0.12))
    (fp_line (start -0.23 -1.16619) (end -0.23 1.16619) (layer F.Fab) (width 0.1))
    (fp_circle (center 1.27 0) (end 2.77 0) (layer F.Fab) (width 0.1))
    (fp_arc (start 1.27 0) (end 0.229039 1.08) (angle -87.9) (layer F.SilkS) (width 0.12))
    (fp_arc (start 1.27 0) (end 0.229039 -1.08) (angle 87.9) (layer F.SilkS) (width 0.12))
    (fp_arc (start 1.27 0) (end -0.29 1.235516) (angle -108.8) (layer F.SilkS) (width 0.12))
    (fp_arc (start 1.27 0) (end -0.29 -1.235516) (angle 108.8) (layer F.SilkS) (width 0.12))
    (fp_arc (start 1.27 0) (end -0.23 -1.16619) (angle 284.3) (layer F.Fab) (width 0.1))
    (pad 2 thru_hole circle (at 2.54 0) (size 1.8 1.8) (drill 0.9) (layers *.Cu *.Mask)
      (net 7 "Net-(D4-Pad2)"))
    (pad 1 thru_hole rect (at 0 0) (size 1.8 1.8) (drill 0.9) (layers *.Cu *.Mask)
      (net 8 "Net-(D4-Pad1)"))
    (model ${KISYS3DMOD}/LED_THT.3dshapes/LED_D3.0mm.wrl
      (at (xyz 0 0 0))
      (scale (xyz 1 1 1))
      (rotate (xyz 0 0 0))
    )
  )

  (module Con_RJ:RJ45_8_S (layer F.Cu) (tedit 5ADCE6D0) (tstamp 5ADCEF68)
    (at 212.725 106.045 90)
    (descr "RJ45 connector, 8-pin")
    (tags RJ45)
    (path /59527F3A)
    (fp_text reference O1 (at 4.7 -4.95 90) (layer F.SilkS)
      (effects (font (size 1 1) (thickness 0.15)))
    )
    (fp_text value RJ45 (at 4.6 15.45 90) (layer F.Fab)
      (effects (font (size 1 1) (thickness 0.15)))
    )
    (fp_line (start 12.46 14.47) (end -3.56 14.47) (layer F.CrtYd) (width 0.05))
    (fp_line (start 12.46 14.47) (end 12.46 -4.06) (layer F.CrtYd) (width 0.05))
    (fp_line (start -3.56 -4.06) (end -3.56 14.47) (layer F.CrtYd) (width 0.05))
    (fp_line (start -3.56 -4.06) (end 12.46 -4.06) (layer F.CrtYd) (width 0.05))
    (fp_line (start -3.17 7.51) (end -3.17 14.22) (layer F.SilkS) (width 0.12))
    (fp_line (start 12.06 7.52) (end 12.07 14.22) (layer F.SilkS) (width 0.12))
    (fp_line (start -3.17 -3.81) (end -3.17 5.19) (layer F.SilkS) (width 0.12))
    (fp_line (start 12.07 -3.81) (end -3.17 -3.81) (layer F.SilkS) (width 0.12))
    (fp_line (start 12.07 -3.81) (end 12.06 5.18) (layer F.SilkS) (width 0.12))
    (fp_line (start -3.17 14.22) (end 12.07 14.22) (layer F.SilkS) (width 0.12))
    (fp_line (start -3.1 -2) (end -1.3 -3.75) (layer F.Fab) (width 0.12))
    (fp_line (start -1.3 -3.75) (end 12 -3.7) (layer F.Fab) (width 0.12))
    (fp_line (start 12 -3.7) (end 12.05 14.15) (layer F.Fab) (width 0.12))
    (fp_line (start 12.05 14.15) (end -3.1 14.15) (layer F.Fab) (width 0.12))
    (fp_line (start -3.1 14.15) (end -3.1 -2) (layer F.Fab) (width 0.12))
    (fp_line (start -3.45 0) (end -4 -0.5) (layer F.SilkS) (width 0.12))
    (fp_line (start -4 -0.5) (end -4 0.55) (layer F.SilkS) (width 0.12))
    (fp_line (start -4 0.55) (end -3.45 0) (layer F.SilkS) (width 0.12))
    (fp_text user %R (at 4.65 5.85 90) (layer F.Fab)
      (effects (font (size 1 1) (thickness 0.15)))
    )
    (pad 10 thru_hole circle (at -3.125 2.575 90) (size 1.9 1.9) (drill 1.4) (layers *.Cu *.Mask))
    (pad 9 thru_hole circle (at 12.065 2.54 90) (size 1.9 1.9) (drill 1.4) (layers *.Cu *.Mask)
      (net 9 GND))
    (pad 8 thru_hole circle (at 8.89 -2.54 90) (size 1.5 1.5) (drill 0.9) (layers *.Cu *.Mask)
      (net 10 "Net-(O1-Pad8)"))
    (pad 7 thru_hole circle (at 7.62 0 90) (size 1.5 1.5) (drill 0.9) (layers *.Cu *.Mask)
      (net 11 "Net-(O1-Pad7)"))
    (pad 6 thru_hole circle (at 6.35 -2.54 90) (size 1.5 1.5) (drill 0.9) (layers *.Cu *.Mask)
      (net 12 "Net-(O1-Pad6)"))
    (pad 5 thru_hole circle (at 5.08 0 90) (size 1.5 1.5) (drill 0.9) (layers *.Cu *.Mask)
      (net 13 "Net-(O1-Pad5)"))
    (pad 4 thru_hole circle (at 3.81 -2.54 90) (size 1.5 1.5) (drill 0.9) (layers *.Cu *.Mask)
      (net 14 "Net-(O1-Pad4)"))
    (pad 3 thru_hole circle (at 2.54 0 90) (size 1.5 1.5) (drill 0.9) (layers *.Cu *.Mask)
      (net 15 "Net-(O1-Pad3)"))
    (pad 2 thru_hole circle (at 1.27 -2.54 90) (size 1.5 1.5) (drill 0.9) (layers *.Cu *.Mask)
      (net 16 "Net-(O1-Pad2)"))
    (pad 1 thru_hole rect (at 0 0 90) (size 1.5 1.5) (drill 0.9) (layers *.Cu *.Mask)
      (net 9 GND))
    (pad "" np_thru_hole circle (at -1.49 6.35 90) (size 3.65 3.65) (drill 3.25) (layers *.Cu *.Mask))
    (pad "" np_thru_hole circle (at 10.38 6.35 90) (size 3.65 3.65) (drill 3.25) (layers *.Cu *.Mask))
    (model ${KISYS3DMOD}/Connector_RJ.3dshapes/RJ45_8.wrl
      (offset (xyz 2949.67138707724 -4096.76581539705 0))
      (scale (xyz 0.4 0.4 0.4))
      (rotate (xyz 0 0 0))
    )
  )

  (module Con_RJ:RJ45_8_S (layer F.Cu) (tedit 5ADCE6D0) (tstamp 5ADCEF8B)
    (at 212.725 86.995 90)
    (descr "RJ45 connector, 8-pin")
    (tags RJ45)
    (path /59527BAF)
    (fp_text reference O2 (at 4.7 -4.95 90) (layer F.SilkS)
      (effects (font (size 1 1) (thickness 0.15)))
    )
    (fp_text value RJ45 (at 4.6 15.45 90) (layer F.Fab)
      (effects (font (size 1 1) (thickness 0.15)))
    )
    (fp_text user %R (at 4.65 5.85 90) (layer F.Fab)
      (effects (font (size 1 1) (thickness 0.15)))
    )
    (fp_line (start -4 0.55) (end -3.45 0) (layer F.SilkS) (width 0.12))
    (fp_line (start -4 -0.5) (end -4 0.55) (layer F.SilkS) (width 0.12))
    (fp_line (start -3.45 0) (end -4 -0.5) (layer F.SilkS) (width 0.12))
    (fp_line (start -3.1 14.15) (end -3.1 -2) (layer F.Fab) (width 0.12))
    (fp_line (start 12.05 14.15) (end -3.1 14.15) (layer F.Fab) (width 0.12))
    (fp_line (start 12 -3.7) (end 12.05 14.15) (layer F.Fab) (width 0.12))
    (fp_line (start -1.3 -3.75) (end 12 -3.7) (layer F.Fab) (width 0.12))
    (fp_line (start -3.1 -2) (end -1.3 -3.75) (layer F.Fab) (width 0.12))
    (fp_line (start -3.17 14.22) (end 12.07 14.22) (layer F.SilkS) (width 0.12))
    (fp_line (start 12.07 -3.81) (end 12.06 5.18) (layer F.SilkS) (width 0.12))
    (fp_line (start 12.07 -3.81) (end -3.17 -3.81) (layer F.SilkS) (width 0.12))
    (fp_line (start -3.17 -3.81) (end -3.17 5.19) (layer F.SilkS) (width 0.12))
    (fp_line (start 12.06 7.52) (end 12.07 14.22) (layer F.SilkS) (width 0.12))
    (fp_line (start -3.17 7.51) (end -3.17 14.22) (layer F.SilkS) (width 0.12))
    (fp_line (start -3.56 -4.06) (end 12.46 -4.06) (layer F.CrtYd) (width 0.05))
    (fp_line (start -3.56 -4.06) (end -3.56 14.47) (layer F.CrtYd) (width 0.05))
    (fp_line (start 12.46 14.47) (end 12.46 -4.06) (layer F.CrtYd) (width 0.05))
    (fp_line (start 12.46 14.47) (end -3.56 14.47) (layer F.CrtYd) (width 0.05))
    (pad "" np_thru_hole circle (at 10.38 6.35 90) (size 3.65 3.65) (drill 3.25) (layers *.Cu *.Mask))
    (pad "" np_thru_hole circle (at -1.49 6.35 90) (size 3.65 3.65) (drill 3.25) (layers *.Cu *.Mask))
    (pad 1 thru_hole rect (at 0 0 90) (size 1.5 1.5) (drill 0.9) (layers *.Cu *.Mask)
      (net 9 GND))
    (pad 2 thru_hole circle (at 1.27 -2.54 90) (size 1.5 1.5) (drill 0.9) (layers *.Cu *.Mask)
      (net 16 "Net-(O1-Pad2)"))
    (pad 3 thru_hole circle (at 2.54 0 90) (size 1.5 1.5) (drill 0.9) (layers *.Cu *.Mask)
      (net 17 "Net-(O2-Pad3)"))
    (pad 4 thru_hole circle (at 3.81 -2.54 90) (size 1.5 1.5) (drill 0.9) (layers *.Cu *.Mask)
      (net 18 "Net-(O2-Pad4)"))
    (pad 5 thru_hole circle (at 5.08 0 90) (size 1.5 1.5) (drill 0.9) (layers *.Cu *.Mask)
      (net 19 "Net-(O2-Pad5)"))
    (pad 6 thru_hole circle (at 6.35 -2.54 90) (size 1.5 1.5) (drill 0.9) (layers *.Cu *.Mask)
      (net 20 "Net-(O2-Pad6)"))
    (pad 7 thru_hole circle (at 7.62 0 90) (size 1.5 1.5) (drill 0.9) (layers *.Cu *.Mask)
      (net 21 "Net-(O2-Pad7)"))
    (pad 8 thru_hole circle (at 8.89 -2.54 90) (size 1.5 1.5) (drill 0.9) (layers *.Cu *.Mask)
      (net 22 "Net-(O2-Pad8)"))
    (pad 9 thru_hole circle (at 12.065 2.54 90) (size 1.9 1.9) (drill 1.4) (layers *.Cu *.Mask)
      (net 9 GND))
    (pad 10 thru_hole circle (at -3.125 2.575 90) (size 1.9 1.9) (drill 1.4) (layers *.Cu *.Mask))
    (model ${KISYS3DMOD}/Connector_RJ.3dshapes/RJ45_8.wrl
      (offset (xyz 2949.67138707724 -4096.76581539705 0))
      (scale (xyz 0.4 0.4 0.4))
      (rotate (xyz 0 0 0))
    )
  )

  (module Con_RJ:RJ45_8_S (layer F.Cu) (tedit 5ADCE6D0) (tstamp 5ADCEFAE)
    (at 177.165 117.475)
    (descr "RJ45 connector, 8-pin")
    (tags RJ45)
    (path /5AA0302B)
    (fp_text reference P1 (at 4.7 -4.95) (layer F.SilkS)
      (effects (font (size 1 1) (thickness 0.15)))
    )
    (fp_text value RJ45 (at 4.6 15.45) (layer F.Fab)
      (effects (font (size 1 1) (thickness 0.15)))
    )
    (fp_text user %R (at 4.65 5.85) (layer F.Fab)
      (effects (font (size 1 1) (thickness 0.15)))
    )
    (fp_line (start -4 0.55) (end -3.45 0) (layer F.SilkS) (width 0.12))
    (fp_line (start -4 -0.5) (end -4 0.55) (layer F.SilkS) (width 0.12))
    (fp_line (start -3.45 0) (end -4 -0.5) (layer F.SilkS) (width 0.12))
    (fp_line (start -3.1 14.15) (end -3.1 -2) (layer F.Fab) (width 0.12))
    (fp_line (start 12.05 14.15) (end -3.1 14.15) (layer F.Fab) (width 0.12))
    (fp_line (start 12 -3.7) (end 12.05 14.15) (layer F.Fab) (width 0.12))
    (fp_line (start -1.3 -3.75) (end 12 -3.7) (layer F.Fab) (width 0.12))
    (fp_line (start -3.1 -2) (end -1.3 -3.75) (layer F.Fab) (width 0.12))
    (fp_line (start -3.17 14.22) (end 12.07 14.22) (layer F.SilkS) (width 0.12))
    (fp_line (start 12.07 -3.81) (end 12.06 5.18) (layer F.SilkS) (width 0.12))
    (fp_line (start 12.07 -3.81) (end -3.17 -3.81) (layer F.SilkS) (width 0.12))
    (fp_line (start -3.17 -3.81) (end -3.17 5.19) (layer F.SilkS) (width 0.12))
    (fp_line (start 12.06 7.52) (end 12.07 14.22) (layer F.SilkS) (width 0.12))
    (fp_line (start -3.17 7.51) (end -3.17 14.22) (layer F.SilkS) (width 0.12))
    (fp_line (start -3.56 -4.06) (end 12.46 -4.06) (layer F.CrtYd) (width 0.05))
    (fp_line (start -3.56 -4.06) (end -3.56 14.47) (layer F.CrtYd) (width 0.05))
    (fp_line (start 12.46 14.47) (end 12.46 -4.06) (layer F.CrtYd) (width 0.05))
    (fp_line (start 12.46 14.47) (end -3.56 14.47) (layer F.CrtYd) (width 0.05))
    (pad "" np_thru_hole circle (at 10.38 6.35) (size 3.65 3.65) (drill 3.25) (layers *.Cu *.Mask))
    (pad "" np_thru_hole circle (at -1.49 6.35) (size 3.65 3.65) (drill 3.25) (layers *.Cu *.Mask))
    (pad 1 thru_hole rect (at 0 0) (size 1.5 1.5) (drill 0.9) (layers *.Cu *.Mask)
      (net 9 GND))
    (pad 2 thru_hole circle (at 1.27 -2.54) (size 1.5 1.5) (drill 0.9) (layers *.Cu *.Mask)
      (net 6 "Net-(D3-Pad2)"))
    (pad 3 thru_hole circle (at 2.54 0) (size 1.5 1.5) (drill 0.9) (layers *.Cu *.Mask)
      (net 15 "Net-(O1-Pad3)"))
    (pad 4 thru_hole circle (at 3.81 -2.54) (size 1.5 1.5) (drill 0.9) (layers *.Cu *.Mask)
      (net 14 "Net-(O1-Pad4)"))
    (pad 5 thru_hole circle (at 5.08 0) (size 1.5 1.5) (drill 0.9) (layers *.Cu *.Mask)
      (net 13 "Net-(O1-Pad5)"))
    (pad 6 thru_hole circle (at 6.35 -2.54) (size 1.5 1.5) (drill 0.9) (layers *.Cu *.Mask)
      (net 12 "Net-(O1-Pad6)"))
    (pad 7 thru_hole circle (at 7.62 0) (size 1.5 1.5) (drill 0.9) (layers *.Cu *.Mask)
      (net 23 "Net-(P1-Pad7)"))
    (pad 8 thru_hole circle (at 8.89 -2.54) (size 1.5 1.5) (drill 0.9) (layers *.Cu *.Mask)
      (net 10 "Net-(O1-Pad8)"))
    (pad 9 thru_hole circle (at 12.065 2.54) (size 1.9 1.9) (drill 1.4) (layers *.Cu *.Mask)
      (net 9 GND))
    (pad 10 thru_hole circle (at -3.125 2.575) (size 1.9 1.9) (drill 1.4) (layers *.Cu *.Mask))
    (model ${KISYS3DMOD}/Connector_RJ.3dshapes/RJ45_8.wrl
      (offset (xyz 2949.67138707724 -4096.76581539705 0))
      (scale (xyz 0.4 0.4 0.4))
      (rotate (xyz 0 0 0))
    )
  )

  (module Con_RJ:RJ45_8_S (layer F.Cu) (tedit 5ADCE6D0) (tstamp 5ADCEFD1)
    (at 186.055 68.58 180)
    (descr "RJ45 connector, 8-pin")
    (tags RJ45)
    (path /5AA03105)
    (fp_text reference P2 (at 4.7 -4.95 180) (layer F.SilkS)
      (effects (font (size 1 1) (thickness 0.15)))
    )
    (fp_text value RJ45 (at 4.6 15.45 180) (layer F.Fab)
      (effects (font (size 1 1) (thickness 0.15)))
    )
    (fp_line (start 12.46 14.47) (end -3.56 14.47) (layer F.CrtYd) (width 0.05))
    (fp_line (start 12.46 14.47) (end 12.46 -4.06) (layer F.CrtYd) (width 0.05))
    (fp_line (start -3.56 -4.06) (end -3.56 14.47) (layer F.CrtYd) (width 0.05))
    (fp_line (start -3.56 -4.06) (end 12.46 -4.06) (layer F.CrtYd) (width 0.05))
    (fp_line (start -3.17 7.51) (end -3.17 14.22) (layer F.SilkS) (width 0.12))
    (fp_line (start 12.06 7.52) (end 12.07 14.22) (layer F.SilkS) (width 0.12))
    (fp_line (start -3.17 -3.81) (end -3.17 5.19) (layer F.SilkS) (width 0.12))
    (fp_line (start 12.07 -3.81) (end -3.17 -3.81) (layer F.SilkS) (width 0.12))
    (fp_line (start 12.07 -3.81) (end 12.06 5.18) (layer F.SilkS) (width 0.12))
    (fp_line (start -3.17 14.22) (end 12.07 14.22) (layer F.SilkS) (width 0.12))
    (fp_line (start -3.1 -2) (end -1.3 -3.75) (layer F.Fab) (width 0.12))
    (fp_line (start -1.3 -3.75) (end 12 -3.7) (layer F.Fab) (width 0.12))
    (fp_line (start 12 -3.7) (end 12.05 14.15) (layer F.Fab) (width 0.12))
    (fp_line (start 12.05 14.15) (end -3.1 14.15) (layer F.Fab) (width 0.12))
    (fp_line (start -3.1 14.15) (end -3.1 -2) (layer F.Fab) (width 0.12))
    (fp_line (start -3.45 0) (end -4 -0.5) (layer F.SilkS) (width 0.12))
    (fp_line (start -4 -0.5) (end -4 0.55) (layer F.SilkS) (width 0.12))
    (fp_line (start -4 0.55) (end -3.45 0) (layer F.SilkS) (width 0.12))
    (fp_text user %R (at 4.65 5.85 180) (layer F.Fab)
      (effects (font (size 1 1) (thickness 0.15)))
    )
    (pad 10 thru_hole circle (at -3.125 2.575 180) (size 1.9 1.9) (drill 1.4) (layers *.Cu *.Mask))
    (pad 9 thru_hole circle (at 12.065 2.54 180) (size 1.9 1.9) (drill 1.4) (layers *.Cu *.Mask)
      (net 9 GND))
    (pad 8 thru_hole circle (at 8.89 -2.54 180) (size 1.5 1.5) (drill 0.9) (layers *.Cu *.Mask)
      (net 22 "Net-(O2-Pad8)"))
    (pad 7 thru_hole circle (at 7.62 0 180) (size 1.5 1.5) (drill 0.9) (layers *.Cu *.Mask)
      (net 24 "Net-(P2-Pad7)"))
    (pad 6 thru_hole circle (at 6.35 -2.54 180) (size 1.5 1.5) (drill 0.9) (layers *.Cu *.Mask)
      (net 20 "Net-(O2-Pad6)"))
    (pad 5 thru_hole circle (at 5.08 0 180) (size 1.5 1.5) (drill 0.9) (layers *.Cu *.Mask)
      (net 19 "Net-(O2-Pad5)"))
    (pad 4 thru_hole circle (at 3.81 -2.54 180) (size 1.5 1.5) (drill 0.9) (layers *.Cu *.Mask)
      (net 18 "Net-(O2-Pad4)"))
    (pad 3 thru_hole circle (at 2.54 0 180) (size 1.5 1.5) (drill 0.9) (layers *.Cu *.Mask)
      (net 17 "Net-(O2-Pad3)"))
    (pad 2 thru_hole circle (at 1.27 -2.54 180) (size 1.5 1.5) (drill 0.9) (layers *.Cu *.Mask)
      (net 6 "Net-(D3-Pad2)"))
    (pad 1 thru_hole rect (at 0 0 180) (size 1.5 1.5) (drill 0.9) (layers *.Cu *.Mask)
      (net 9 GND))
    (pad "" np_thru_hole circle (at -1.49 6.35 180) (size 3.65 3.65) (drill 3.25) (layers *.Cu *.Mask))
    (pad "" np_thru_hole circle (at 10.38 6.35 180) (size 3.65 3.65) (drill 3.25) (layers *.Cu *.Mask))
    (model ${KISYS3DMOD}/Connector_RJ.3dshapes/RJ45_8.wrl
      (offset (xyz 2949.67138707724 -4096.76581539705 0))
      (scale (xyz 0.4 0.4 0.4))
      (rotate (xyz 0 0 0))
    )
  )

  (module NES_CTRL:nes_ctrl (layer F.Cu) (tedit 5AD54EB5) (tstamp 5ADCEFF4)
    (at 164.465 111.125)
    (tags nes_ctrl)
    (path /595280C8)
    (fp_text reference P11 (at 1.27 3.175) (layer F.SilkS)
      (effects (font (size 1 1) (thickness 0.15)))
    )
    (fp_text value NES_CTRL (at 0 1.27) (layer F.Fab)
      (effects (font (size 1 1) (thickness 0.15)))
    )
    (fp_line (start -6.9 20) (end -7 2.1) (layer B.SilkS) (width 0.15))
    (fp_line (start 2 20) (end -6.9 20) (layer B.SilkS) (width 0.15))
    (fp_line (start 2 6) (end 2 20) (layer B.SilkS) (width 0.15))
    (fp_line (start -3 2) (end 2 6) (layer B.SilkS) (width 0.15))
    (fp_line (start -7 2) (end -3 2) (layer B.SilkS) (width 0.15))
    (fp_line (start -7 2) (end -7 20) (layer F.SilkS) (width 0.15))
    (fp_line (start -3.1 2) (end -7 2) (layer F.SilkS) (width 0.15))
    (fp_line (start 2 6) (end -3 2) (layer F.SilkS) (width 0.15))
    (fp_line (start 2 20) (end 2 6) (layer F.SilkS) (width 0.15))
    (fp_line (start -7.1 20) (end 2 20) (layer F.SilkS) (width 0.15))
    (fp_text user D4 (at 3.92 17.04) (layer B.SilkS)
      (effects (font (size 1 1) (thickness 0.15)) (justify mirror))
    )
    (fp_text user D3 (at 4.02 13.23) (layer B.SilkS)
      (effects (font (size 1 1) (thickness 0.15)) (justify mirror))
    )
    (fp_text user +5V (at 4.52 8.72) (layer B.SilkS)
      (effects (font (size 1 1) (thickness 0.15)) (justify mirror))
    )
    (fp_text user D0 (at -8.915 17.14) (layer B.SilkS)
      (effects (font (size 1 1) (thickness 0.15)) (justify mirror))
    )
    (fp_text user LAT (at -9.215 13.03) (layer B.SilkS)
      (effects (font (size 1 1) (thickness 0.15)) (justify mirror))
    )
    (fp_text user CLK (at -8.815 8.92) (layer B.SilkS)
      (effects (font (size 1 1) (thickness 0.15)) (justify mirror))
    )
    (fp_text user GND (at -8.915 4.11) (layer B.SilkS)
      (effects (font (size 1 1) (thickness 0.15)) (justify mirror))
    )
    (fp_text user D4 (at 3.92 17.04) (layer F.SilkS)
      (effects (font (size 1 1) (thickness 0.15)))
    )
    (fp_text user D3 (at 4.02 13.23) (layer F.SilkS)
      (effects (font (size 1 1) (thickness 0.15)))
    )
    (fp_text user +5V (at 4.52 8.72) (layer F.SilkS)
      (effects (font (size 1 1) (thickness 0.15)))
    )
    (fp_text user D0 (at -8.915 17.14) (layer F.SilkS)
      (effects (font (size 1 1) (thickness 0.15)))
    )
    (fp_text user LAT (at -9.215 13.03) (layer F.SilkS)
      (effects (font (size 1 1) (thickness 0.15)))
    )
    (fp_text user CLK (at -8.815 8.92) (layer F.SilkS)
      (effects (font (size 1 1) (thickness 0.15)))
    )
    (fp_text user GND (at -8.915 4.11) (layer F.SilkS)
      (effects (font (size 1 1) (thickness 0.15)))
    )
    (pad 1 thru_hole circle (at -4.318 4.318) (size 2.5 2.5) (drill 1.25) (layers *.Cu *.Mask)
      (net 9 GND))
    (pad 2 thru_hole circle (at -4.318 8.636) (size 2.5 2.5) (drill 1.25) (layers *.Cu *.Mask)
      (net 10 "Net-(O1-Pad8)"))
    (pad 3 thru_hole circle (at -4.318 12.954) (size 2.5 2.5) (drill 1.25) (layers *.Cu *.Mask)
      (net 12 "Net-(O1-Pad6)"))
    (pad 4 thru_hole circle (at -4.318 17.272) (size 2.5 2.5) (drill 1.25) (layers *.Cu *.Mask)
      (net 14 "Net-(O1-Pad4)"))
    (pad 5 thru_hole circle (at 0 8.636) (size 2.5 2.5) (drill 1.25) (layers *.Cu *.Mask)
      (net 3 "Net-(D2-Pad2)"))
    (pad 6 thru_hole circle (at 0 12.954) (size 2.5 2.5) (drill 1.25) (layers *.Cu *.Mask)
      (net 13 "Net-(O1-Pad5)"))
    (pad 7 thru_hole circle (at 0 17.272) (size 2.5 2.5) (drill 1.25) (layers *.Cu *.Mask)
      (net 15 "Net-(O1-Pad3)"))
  )

  (module NES_CTRL:SNES_CTRL (layer F.Cu) (tedit 5AD54BFA) (tstamp 5ADCF012)
    (at 154.305 94.615)
    (path /5AA03CDE)
    (fp_text reference P12 (at 0 1.27) (layer F.SilkS)
      (effects (font (size 1 1) (thickness 0.15)))
    )
    (fp_text value SNES_CTRL (at 0 -0.5) (layer F.Fab)
      (effects (font (size 1 1) (thickness 0.15)))
    )
    (fp_line (start 3.5 5.75) (end 3.5 2.25) (layer F.SilkS) (width 0.15))
    (fp_line (start -13.75 5.75) (end 14.5 5.75) (layer F.SilkS) (width 0.15))
    (fp_line (start -13.75 2.25) (end -13.75 5.75) (layer F.SilkS) (width 0.15))
    (fp_line (start 14.25 2.25) (end -13.75 2.25) (layer F.SilkS) (width 0.15))
    (fp_arc (start 14.5 4) (end 14.5 5.75) (angle -180) (layer F.SilkS) (width 0.15))
    (fp_text user GND (at 14.505 7.755 90) (layer F.SilkS)
      (effects (font (size 1 1) (thickness 0.15)))
    )
    (fp_text user I/O (at 10.33 7.755 90) (layer F.SilkS)
      (effects (font (size 1 1) (thickness 0.15)))
    )
    (fp_text user D1 (at 6.405 7.62 90) (layer F.SilkS)
      (effects (font (size 1 1) (thickness 0.15)))
    )
    (fp_text user D0 (at 0.095 7.37 90) (layer F.SilkS)
      (effects (font (size 1 1) (thickness 0.15)))
    )
    (fp_text user LAT (at -4.08 7.755 90) (layer F.SilkS)
      (effects (font (size 1 1) (thickness 0.15)))
    )
    (fp_text user CLK (at -8.005 7.755 270) (layer F.SilkS)
      (effects (font (size 1 1) (thickness 0.15)))
    )
    (fp_text user +5V (at -11.93 8.255 90) (layer F.SilkS)
      (effects (font (size 1 1) (thickness 0.15)))
    )
    (fp_text user GND (at 14.505 7.755 -90) (layer B.SilkS)
      (effects (font (size 1 1) (thickness 0.15)) (justify mirror))
    )
    (fp_text user I/O (at 10.33 7.755 -90) (layer B.SilkS)
      (effects (font (size 1 1) (thickness 0.15)) (justify mirror))
    )
    (fp_text user D1 (at 6.405 7.62 -90) (layer B.SilkS)
      (effects (font (size 1 1) (thickness 0.15)) (justify mirror))
    )
    (fp_text user D0 (at 0.095 7.37 -90) (layer B.SilkS)
      (effects (font (size 1 1) (thickness 0.15)) (justify mirror))
    )
    (fp_text user LAT (at -4.08 7.755 -90) (layer B.SilkS)
      (effects (font (size 1 1) (thickness 0.15)) (justify mirror))
    )
    (fp_text user CLK (at -8.005 7.755 -270) (layer B.SilkS)
      (effects (font (size 1 1) (thickness 0.15)) (justify mirror))
    )
    (fp_text user +5V (at -11.93 8.255 -90) (layer B.SilkS)
      (effects (font (size 1 1) (thickness 0.15)) (justify mirror))
    )
    (pad 1 thru_hole circle (at 14.5 4) (size 2.5 2.5) (drill 1.25) (layers *.Cu *.Mask)
      (net 9 GND))
    (pad 2 thru_hole circle (at 10.5 4) (size 2.5 2.5) (drill 1.25) (layers *.Cu *.Mask)
      (net 15 "Net-(O1-Pad3)"))
    (pad 3 thru_hole circle (at 6.5 4) (size 2.5 2.5) (drill 1.25) (layers *.Cu *.Mask)
      (net 13 "Net-(O1-Pad5)"))
    (pad 4 thru_hole circle (at 0 4) (size 2.5 2.5) (drill 1.25) (layers *.Cu *.Mask)
      (net 14 "Net-(O1-Pad4)"))
    (pad 5 thru_hole circle (at -4 4) (size 2.5 2.5) (drill 1.25) (layers *.Cu *.Mask)
      (net 12 "Net-(O1-Pad6)"))
    (pad 6 thru_hole circle (at -8 4) (size 2.5 2.5) (drill 1.25) (layers *.Cu *.Mask)
      (net 10 "Net-(O1-Pad8)"))
    (pad 7 thru_hole circle (at -12 4) (size 2.5 2.5) (drill 1.25) (layers *.Cu *.Mask)
      (net 2 "Net-(D1-Pad2)"))
  )

  (module Con_RJ:RJ45_8_S (layer F.Cu) (tedit 5ADCE6D0) (tstamp 5ADCF035)
    (at 196.215 117.475)
    (descr "RJ45 connector, 8-pin")
    (tags RJ45)
    (path /5952928C)
    (fp_text reference P13 (at 4.7 -4.95) (layer F.SilkS)
      (effects (font (size 1 1) (thickness 0.15)))
    )
    (fp_text value RJ45 (at 4.6 15.45) (layer F.Fab)
      (effects (font (size 1 1) (thickness 0.15)))
    )
    (fp_text user %R (at 4.65 5.85) (layer F.Fab)
      (effects (font (size 1 1) (thickness 0.15)))
    )
    (fp_line (start -4 0.55) (end -3.45 0) (layer F.SilkS) (width 0.12))
    (fp_line (start -4 -0.5) (end -4 0.55) (layer F.SilkS) (width 0.12))
    (fp_line (start -3.45 0) (end -4 -0.5) (layer F.SilkS) (width 0.12))
    (fp_line (start -3.1 14.15) (end -3.1 -2) (layer F.Fab) (width 0.12))
    (fp_line (start 12.05 14.15) (end -3.1 14.15) (layer F.Fab) (width 0.12))
    (fp_line (start 12 -3.7) (end 12.05 14.15) (layer F.Fab) (width 0.12))
    (fp_line (start -1.3 -3.75) (end 12 -3.7) (layer F.Fab) (width 0.12))
    (fp_line (start -3.1 -2) (end -1.3 -3.75) (layer F.Fab) (width 0.12))
    (fp_line (start -3.17 14.22) (end 12.07 14.22) (layer F.SilkS) (width 0.12))
    (fp_line (start 12.07 -3.81) (end 12.06 5.18) (layer F.SilkS) (width 0.12))
    (fp_line (start 12.07 -3.81) (end -3.17 -3.81) (layer F.SilkS) (width 0.12))
    (fp_line (start -3.17 -3.81) (end -3.17 5.19) (layer F.SilkS) (width 0.12))
    (fp_line (start 12.06 7.52) (end 12.07 14.22) (layer F.SilkS) (width 0.12))
    (fp_line (start -3.17 7.51) (end -3.17 14.22) (layer F.SilkS) (width 0.12))
    (fp_line (start -3.56 -4.06) (end 12.46 -4.06) (layer F.CrtYd) (width 0.05))
    (fp_line (start -3.56 -4.06) (end -3.56 14.47) (layer F.CrtYd) (width 0.05))
    (fp_line (start 12.46 14.47) (end 12.46 -4.06) (layer F.CrtYd) (width 0.05))
    (fp_line (start 12.46 14.47) (end -3.56 14.47) (layer F.CrtYd) (width 0.05))
    (pad "" np_thru_hole circle (at 10.38 6.35) (size 3.65 3.65) (drill 3.25) (layers *.Cu *.Mask))
    (pad "" np_thru_hole circle (at -1.49 6.35) (size 3.65 3.65) (drill 3.25) (layers *.Cu *.Mask))
    (pad 1 thru_hole rect (at 0 0) (size 1.5 1.5) (drill 0.9) (layers *.Cu *.Mask)
      (net 9 GND))
    (pad 2 thru_hole circle (at 1.27 -2.54) (size 1.5 1.5) (drill 0.9) (layers *.Cu *.Mask)
      (net 7 "Net-(D4-Pad2)"))
    (pad 3 thru_hole circle (at 2.54 0) (size 1.5 1.5) (drill 0.9) (layers *.Cu *.Mask)
      (net 15 "Net-(O1-Pad3)"))
    (pad 4 thru_hole circle (at 3.81 -2.54) (size 1.5 1.5) (drill 0.9) (layers *.Cu *.Mask)
      (net 14 "Net-(O1-Pad4)"))
    (pad 5 thru_hole circle (at 5.08 0) (size 1.5 1.5) (drill 0.9) (layers *.Cu *.Mask)
      (net 13 "Net-(O1-Pad5)"))
    (pad 6 thru_hole circle (at 6.35 -2.54) (size 1.5 1.5) (drill 0.9) (layers *.Cu *.Mask)
      (net 12 "Net-(O1-Pad6)"))
    (pad 7 thru_hole circle (at 7.62 0) (size 1.5 1.5) (drill 0.9) (layers *.Cu *.Mask)
      (net 25 "Net-(P13-Pad7)"))
    (pad 8 thru_hole circle (at 8.89 -2.54) (size 1.5 1.5) (drill 0.9) (layers *.Cu *.Mask)
      (net 10 "Net-(O1-Pad8)"))
    (pad 9 thru_hole circle (at 12.065 2.54) (size 1.9 1.9) (drill 1.4) (layers *.Cu *.Mask)
      (net 9 GND))
    (pad 10 thru_hole circle (at -3.125 2.575) (size 1.9 1.9) (drill 1.4) (layers *.Cu *.Mask))
    (model ${KISYS3DMOD}/Connector_RJ.3dshapes/RJ45_8.wrl
      (offset (xyz 2949.67138707724 -4096.76581539705 0))
      (scale (xyz 0.4 0.4 0.4))
      (rotate (xyz 0 0 0))
    )
  )

  (module NES_CTRL:nes_ctrl (layer F.Cu) (tedit 5AD54EB5) (tstamp 5ADCF058)
    (at 160.02 74.295 180)
    (tags nes_ctrl)
    (path /59527FFE)
    (fp_text reference P21 (at 1.905 3.81 180) (layer F.SilkS)
      (effects (font (size 1 1) (thickness 0.15)))
    )
    (fp_text value NES_CTRL (at 1.905 1.905 180) (layer F.Fab)
      (effects (font (size 1 1) (thickness 0.15)))
    )
    (fp_text user GND (at -8.915 4.11 180) (layer F.SilkS)
      (effects (font (size 1 1) (thickness 0.15)))
    )
    (fp_text user CLK (at -8.815 8.92 180) (layer F.SilkS)
      (effects (font (size 1 1) (thickness 0.15)))
    )
    (fp_text user LAT (at -9.215 13.03 180) (layer F.SilkS)
      (effects (font (size 1 1) (thickness 0.15)))
    )
    (fp_text user D0 (at -8.915 17.14 180) (layer F.SilkS)
      (effects (font (size 1 1) (thickness 0.15)))
    )
    (fp_text user +5V (at 4.52 8.72 180) (layer F.SilkS)
      (effects (font (size 1 1) (thickness 0.15)))
    )
    (fp_text user D3 (at 4.02 13.23 180) (layer F.SilkS)
      (effects (font (size 1 1) (thickness 0.15)))
    )
    (fp_text user D4 (at 3.92 17.04 180) (layer F.SilkS)
      (effects (font (size 1 1) (thickness 0.15)))
    )
    (fp_text user GND (at -8.915 4.11 180) (layer B.SilkS)
      (effects (font (size 1 1) (thickness 0.15)) (justify mirror))
    )
    (fp_text user CLK (at -8.815 8.92 180) (layer B.SilkS)
      (effects (font (size 1 1) (thickness 0.15)) (justify mirror))
    )
    (fp_text user LAT (at -9.215 13.03 180) (layer B.SilkS)
      (effects (font (size 1 1) (thickness 0.15)) (justify mirror))
    )
    (fp_text user D0 (at -8.915 17.14 180) (layer B.SilkS)
      (effects (font (size 1 1) (thickness 0.15)) (justify mirror))
    )
    (fp_text user +5V (at 4.52 8.72 180) (layer B.SilkS)
      (effects (font (size 1 1) (thickness 0.15)) (justify mirror))
    )
    (fp_text user D3 (at 4.02 13.23 180) (layer B.SilkS)
      (effects (font (size 1 1) (thickness 0.15)) (justify mirror))
    )
    (fp_text user D4 (at 3.92 17.04 180) (layer B.SilkS)
      (effects (font (size 1 1) (thickness 0.15)) (justify mirror))
    )
    (fp_line (start -7.1 20) (end 2 20) (layer F.SilkS) (width 0.15))
    (fp_line (start 2 20) (end 2 6) (layer F.SilkS) (width 0.15))
    (fp_line (start 2 6) (end -3 2) (layer F.SilkS) (width 0.15))
    (fp_line (start -3.1 2) (end -7 2) (layer F.SilkS) (width 0.15))
    (fp_line (start -7 2) (end -7 20) (layer F.SilkS) (width 0.15))
    (fp_line (start -7 2) (end -3 2) (layer B.SilkS) (width 0.15))
    (fp_line (start -3 2) (end 2 6) (layer B.SilkS) (width 0.15))
    (fp_line (start 2 6) (end 2 20) (layer B.SilkS) (width 0.15))
    (fp_line (start 2 20) (end -6.9 20) (layer B.SilkS) (width 0.15))
    (fp_line (start -6.9 20) (end -7 2.1) (layer B.SilkS) (width 0.15))
    (pad 7 thru_hole circle (at 0 17.272 180) (size 2.5 2.5) (drill 1.25) (layers *.Cu *.Mask)
      (net 17 "Net-(O2-Pad3)"))
    (pad 6 thru_hole circle (at 0 12.954 180) (size 2.5 2.5) (drill 1.25) (layers *.Cu *.Mask)
      (net 19 "Net-(O2-Pad5)"))
    (pad 5 thru_hole circle (at 0 8.636 180) (size 2.5 2.5) (drill 1.25) (layers *.Cu *.Mask)
      (net 3 "Net-(D2-Pad2)"))
    (pad 4 thru_hole circle (at -4.318 17.272 180) (size 2.5 2.5) (drill 1.25) (layers *.Cu *.Mask)
      (net 18 "Net-(O2-Pad4)"))
    (pad 3 thru_hole circle (at -4.318 12.954 180) (size 2.5 2.5) (drill 1.25) (layers *.Cu *.Mask)
      (net 20 "Net-(O2-Pad6)"))
    (pad 2 thru_hole circle (at -4.318 8.636 180) (size 2.5 2.5) (drill 1.25) (layers *.Cu *.Mask)
      (net 22 "Net-(O2-Pad8)"))
    (pad 1 thru_hole circle (at -4.318 4.318 180) (size 2.5 2.5) (drill 1.25) (layers *.Cu *.Mask)
      (net 9 GND))
  )

  (module NES_CTRL:SNES_CTRL (layer F.Cu) (tedit 5AD54BFA) (tstamp 5ADCF076)
    (at 154.305 79.375)
    (path /5AA03B6D)
    (fp_text reference P22 (at 0 1.27) (layer F.SilkS)
      (effects (font (size 1 1) (thickness 0.15)))
    )
    (fp_text value SNES_CTRL (at 0 -0.5) (layer F.Fab)
      (effects (font (size 1 1) (thickness 0.15)))
    )
    (fp_text user +5V (at -11.93 8.255 -90) (layer B.SilkS)
      (effects (font (size 1 1) (thickness 0.15)) (justify mirror))
    )
    (fp_text user CLK (at -8.005 7.755 -270) (layer B.SilkS)
      (effects (font (size 1 1) (thickness 0.15)) (justify mirror))
    )
    (fp_text user LAT (at -4.08 7.755 -90) (layer B.SilkS)
      (effects (font (size 1 1) (thickness 0.15)) (justify mirror))
    )
    (fp_text user D0 (at 0.095 7.37 -90) (layer B.SilkS)
      (effects (font (size 1 1) (thickness 0.15)) (justify mirror))
    )
    (fp_text user D1 (at 6.405 7.62 -90) (layer B.SilkS)
      (effects (font (size 1 1) (thickness 0.15)) (justify mirror))
    )
    (fp_text user I/O (at 10.33 7.755 -90) (layer B.SilkS)
      (effects (font (size 1 1) (thickness 0.15)) (justify mirror))
    )
    (fp_text user GND (at 14.505 7.755 -90) (layer B.SilkS)
      (effects (font (size 1 1) (thickness 0.15)) (justify mirror))
    )
    (fp_text user +5V (at -11.93 8.255 90) (layer F.SilkS)
      (effects (font (size 1 1) (thickness 0.15)))
    )
    (fp_text user CLK (at -8.005 7.755 270) (layer F.SilkS)
      (effects (font (size 1 1) (thickness 0.15)))
    )
    (fp_text user LAT (at -4.08 7.755 90) (layer F.SilkS)
      (effects (font (size 1 1) (thickness 0.15)))
    )
    (fp_text user D0 (at 0.095 7.37 90) (layer F.SilkS)
      (effects (font (size 1 1) (thickness 0.15)))
    )
    (fp_text user D1 (at 6.405 7.62 90) (layer F.SilkS)
      (effects (font (size 1 1) (thickness 0.15)))
    )
    (fp_text user I/O (at 10.33 7.755 90) (layer F.SilkS)
      (effects (font (size 1 1) (thickness 0.15)))
    )
    (fp_text user GND (at 14.505 7.755 90) (layer F.SilkS)
      (effects (font (size 1 1) (thickness 0.15)))
    )
    (fp_arc (start 14.5 4) (end 14.5 5.75) (angle -180) (layer F.SilkS) (width 0.15))
    (fp_line (start 14.25 2.25) (end -13.75 2.25) (layer F.SilkS) (width 0.15))
    (fp_line (start -13.75 2.25) (end -13.75 5.75) (layer F.SilkS) (width 0.15))
    (fp_line (start -13.75 5.75) (end 14.5 5.75) (layer F.SilkS) (width 0.15))
    (fp_line (start 3.5 5.75) (end 3.5 2.25) (layer F.SilkS) (width 0.15))
    (pad 7 thru_hole circle (at -12 4) (size 2.5 2.5) (drill 1.25) (layers *.Cu *.Mask)
      (net 2 "Net-(D1-Pad2)"))
    (pad 6 thru_hole circle (at -8 4) (size 2.5 2.5) (drill 1.25) (layers *.Cu *.Mask)
      (net 22 "Net-(O2-Pad8)"))
    (pad 5 thru_hole circle (at -4 4) (size 2.5 2.5) (drill 1.25) (layers *.Cu *.Mask)
      (net 20 "Net-(O2-Pad6)"))
    (pad 4 thru_hole circle (at 0 4) (size 2.5 2.5) (drill 1.25) (layers *.Cu *.Mask)
      (net 18 "Net-(O2-Pad4)"))
    (pad 3 thru_hole circle (at 6.5 4) (size 2.5 2.5) (drill 1.25) (layers *.Cu *.Mask)
      (net 19 "Net-(O2-Pad5)"))
    (pad 2 thru_hole circle (at 10.5 4) (size 2.5 2.5) (drill 1.25) (layers *.Cu *.Mask)
      (net 17 "Net-(O2-Pad3)"))
    (pad 1 thru_hole circle (at 14.5 4) (size 2.5 2.5) (drill 1.25) (layers *.Cu *.Mask)
      (net 9 GND))
  )

  (module Con_RJ:RJ45_8_S (layer F.Cu) (tedit 5ADCE6D0) (tstamp 5ADCF099)
    (at 205.105 68.58 180)
    (descr "RJ45 connector, 8-pin")
    (tags RJ45)
    (path /59529293)
    (fp_text reference P23 (at 4.7 -4.95 180) (layer F.SilkS)
      (effects (font (size 1 1) (thickness 0.15)))
    )
    (fp_text value RJ45 (at 4.6 15.45 180) (layer F.Fab)
      (effects (font (size 1 1) (thickness 0.15)))
    )
    (fp_line (start 12.46 14.47) (end -3.56 14.47) (layer F.CrtYd) (width 0.05))
    (fp_line (start 12.46 14.47) (end 12.46 -4.06) (layer F.CrtYd) (width 0.05))
    (fp_line (start -3.56 -4.06) (end -3.56 14.47) (layer F.CrtYd) (width 0.05))
    (fp_line (start -3.56 -4.06) (end 12.46 -4.06) (layer F.CrtYd) (width 0.05))
    (fp_line (start -3.17 7.51) (end -3.17 14.22) (layer F.SilkS) (width 0.12))
    (fp_line (start 12.06 7.52) (end 12.07 14.22) (layer F.SilkS) (width 0.12))
    (fp_line (start -3.17 -3.81) (end -3.17 5.19) (layer F.SilkS) (width 0.12))
    (fp_line (start 12.07 -3.81) (end -3.17 -3.81) (layer F.SilkS) (width 0.12))
    (fp_line (start 12.07 -3.81) (end 12.06 5.18) (layer F.SilkS) (width 0.12))
    (fp_line (start -3.17 14.22) (end 12.07 14.22) (layer F.SilkS) (width 0.12))
    (fp_line (start -3.1 -2) (end -1.3 -3.75) (layer F.Fab) (width 0.12))
    (fp_line (start -1.3 -3.75) (end 12 -3.7) (layer F.Fab) (width 0.12))
    (fp_line (start 12 -3.7) (end 12.05 14.15) (layer F.Fab) (width 0.12))
    (fp_line (start 12.05 14.15) (end -3.1 14.15) (layer F.Fab) (width 0.12))
    (fp_line (start -3.1 14.15) (end -3.1 -2) (layer F.Fab) (width 0.12))
    (fp_line (start -3.45 0) (end -4 -0.5) (layer F.SilkS) (width 0.12))
    (fp_line (start -4 -0.5) (end -4 0.55) (layer F.SilkS) (width 0.12))
    (fp_line (start -4 0.55) (end -3.45 0) (layer F.SilkS) (width 0.12))
    (fp_text user %R (at 4.65 5.85 180) (layer F.Fab)
      (effects (font (size 1 1) (thickness 0.15)))
    )
    (pad 10 thru_hole circle (at -3.125 2.575 180) (size 1.9 1.9) (drill 1.4) (layers *.Cu *.Mask))
    (pad 9 thru_hole circle (at 12.065 2.54 180) (size 1.9 1.9) (drill 1.4) (layers *.Cu *.Mask)
      (net 9 GND))
    (pad 8 thru_hole circle (at 8.89 -2.54 180) (size 1.5 1.5) (drill 0.9) (layers *.Cu *.Mask)
      (net 22 "Net-(O2-Pad8)"))
    (pad 7 thru_hole circle (at 7.62 0 180) (size 1.5 1.5) (drill 0.9) (layers *.Cu *.Mask)
      (net 26 "Net-(P23-Pad7)"))
    (pad 6 thru_hole circle (at 6.35 -2.54 180) (size 1.5 1.5) (drill 0.9) (layers *.Cu *.Mask)
      (net 20 "Net-(O2-Pad6)"))
    (pad 5 thru_hole circle (at 5.08 0 180) (size 1.5 1.5) (drill 0.9) (layers *.Cu *.Mask)
      (net 19 "Net-(O2-Pad5)"))
    (pad 4 thru_hole circle (at 3.81 -2.54 180) (size 1.5 1.5) (drill 0.9) (layers *.Cu *.Mask)
      (net 18 "Net-(O2-Pad4)"))
    (pad 3 thru_hole circle (at 2.54 0 180) (size 1.5 1.5) (drill 0.9) (layers *.Cu *.Mask)
      (net 17 "Net-(O2-Pad3)"))
    (pad 2 thru_hole circle (at 1.27 -2.54 180) (size 1.5 1.5) (drill 0.9) (layers *.Cu *.Mask)
      (net 7 "Net-(D4-Pad2)"))
    (pad 1 thru_hole rect (at 0 0 180) (size 1.5 1.5) (drill 0.9) (layers *.Cu *.Mask)
      (net 9 GND))
    (pad "" np_thru_hole circle (at -1.49 6.35 180) (size 3.65 3.65) (drill 3.25) (layers *.Cu *.Mask))
    (pad "" np_thru_hole circle (at 10.38 6.35 180) (size 3.65 3.65) (drill 3.25) (layers *.Cu *.Mask))
    (model ${KISYS3DMOD}/Connector_RJ.3dshapes/RJ45_8.wrl
      (offset (xyz 2949.67138707724 -4096.76581539705 0))
      (scale (xyz 0.4 0.4 0.4))
      (rotate (xyz 0 0 0))
    )
  )

  (module NES_CTRL:SW_rotary1x4 (layer F.Cu) (tedit 5ADCE4B5) (tstamp 5ADCF0AC)
    (at 191.77 78.74)
    (path /5AA03423)
    (fp_text reference SW1 (at 0 6.35) (layer F.SilkS)
      (effects (font (size 1 1) (thickness 0.15)))
    )
    (fp_text value SW_rotary1x4 (at 0 5.08) (layer F.Fab)
      (effects (font (size 1 1) (thickness 0.15)))
    )
    (fp_circle (center 0 12.16) (end 4.56 12.16) (layer F.SilkS) (width 0.15))
    (fp_circle (center 0 12.16) (end 4.56 12.16) (layer B.SilkS) (width 0.15))
    (fp_line (start -0.425 10.75) (end 0.5 10.75) (layer B.SilkS) (width 0.15))
    (fp_line (start 0.5 10.75) (end 0 10.275) (layer B.SilkS) (width 0.15))
    (fp_line (start 0 10.275) (end -0.475 10.725) (layer B.SilkS) (width 0.15))
    (fp_line (start 0.014657 10.274773) (end 0.489657 10.724773) (layer F.SilkS) (width 0.15))
    (fp_line (start -0.485343 10.749773) (end 0.014657 10.274773) (layer F.SilkS) (width 0.15))
    (fp_line (start 0.439657 10.749773) (end -0.485343 10.749773) (layer F.SilkS) (width 0.15))
    (fp_text user 3 (at 0.825 13.825) (layer F.SilkS)
      (effects (font (size 1 1) (thickness 0.15)))
    )
    (fp_text user 3 (at 0.825 13.825) (layer B.SilkS)
      (effects (font (size 1 1) (thickness 0.15)) (justify mirror))
    )
    (pad 5 thru_hole circle (at 0 12.16) (size 1.524 1.524) (drill 0.635) (layers *.Cu *.Mask)
      (net 16 "Net-(O1-Pad2)"))
    (pad 2 thru_hole circle (at 3.04 12.16) (size 1.524 1.524) (drill 0.635) (layers *.Cu *.Mask)
      (net 4 "Net-(D2-Pad1)"))
    (pad 3 thru_hole circle (at 0 15.2) (size 1.524 1.524) (drill 0.635) (layers *.Cu *.Mask)
      (net 5 "Net-(D3-Pad1)"))
    (pad 4 thru_hole circle (at -3.04 12.195) (size 1.524 1.524) (drill 0.635) (layers *.Cu *.Mask)
      (net 8 "Net-(D4-Pad1)"))
    (pad 1 thru_hole circle (at 0 9.12) (size 1.524 1.524) (drill 0.635) (layers *.Cu *.Mask)
      (net 1 "Net-(D1-Pad1)"))
  )

  (module "NES_CTRL:Lego pip" (layer F.Cu) (tedit 5AD81AF0) (tstamp 5ADCFE1C)
    (at 226.06 50.165)
    (fp_text reference "" (at 0 0.5) (layer F.SilkS) hide
      (effects (font (size 1 1) (thickness 0.15)))
    )
    (fp_text value "Lego pip" (at 0 -1.27) (layer F.Fab)
      (effects (font (size 1 1) (thickness 0.15)))
    )
    (fp_circle (center 0 4.445) (end 3.175 3.81) (layer B.SilkS) (width 0.15))
    (pad "" thru_hole circle (at 0 4.445) (size 6.5 6.5) (drill 4.8) (layers *.Cu *.Mask))
  )

  (gr_line (start 229.87 135.255) (end 139.7 135.255) (layer Edge.Cuts) (width 0.1))
  (gr_line (start 229.87 50.8) (end 229.87 135.255) (layer Edge.Cuts) (width 0.1))
  (gr_line (start 139.7 50.8) (end 139.7 135.255) (layer Edge.Cuts) (width 0.1))
  (gr_line (start 229.87 50.8) (end 139.7 50.8) (layer Edge.Cuts) (width 0.1))
  (gr_text Output (at 228.6 92.075 90) (layer B.SilkS) (tstamp 5ADCFDAF)
    (effects (font (size 1.5 1.5) (thickness 0.3)) (justify mirror))
  )
  (gr_text Output (at 228.6 92.075 90) (layer F.SilkS)
    (effects (font (size 1.5 1.5) (thickness 0.3)))
  )
  (gr_text "Player Two" (at 190.5 52.705 180) (layer B.SilkS) (tstamp 5ADCFC59)
    (effects (font (size 1.5 1.5) (thickness 0.3)) (justify mirror))
  )
  (gr_text "Player Two" (at 190.5 52.705 180) (layer F.SilkS)
    (effects (font (size 1.5 1.5) (thickness 0.3)))
  )
  (gr_text "Player One" (at 191.135 133.985) (layer B.SilkS) (tstamp 5ADCFC51)
    (effects (font (size 1.5 1.5) (thickness 0.3)) (justify mirror))
  )
  (gr_text "Player One" (at 191.135 133.985) (layer F.SilkS)
    (effects (font (size 1.5 1.5) (thickness 0.3)))
  )
  (gr_text "TASLink\nPSoC5" (at 200.66 88.9) (layer B.SilkS) (tstamp 5ADCFC4B)
    (effects (font (size 1.5 1.5) (thickness 0.3)) (justify mirror))
  )
  (gr_text "SNES\n" (at 182.245 88.265) (layer B.SilkS) (tstamp 5ADCFC47)
    (effects (font (size 1.5 1.5) (thickness 0.3)) (justify mirror))
  )
  (gr_text NES (at 182.245 102.87) (layer B.SilkS) (tstamp 5ADCFC43)
    (effects (font (size 1.5 1.5) (thickness 0.3)) (justify mirror))
  )
  (gr_text "TASLink\nPSoC5" (at 200.66 104.14) (layer B.SilkS) (tstamp 5ADCFC3E)
    (effects (font (size 1.5 1.5) (thickness 0.3)) (justify mirror))
  )
  (gr_text "TASLink\nPSoC5" (at 200.66 104.14) (layer F.SilkS) (tstamp 5ADCFC3C)
    (effects (font (size 1.5 1.5) (thickness 0.3)))
  )
  (gr_text "TASLink\nPSoC5" (at 200.66 88.9) (layer F.SilkS)
    (effects (font (size 1.5 1.5) (thickness 0.3)))
  )
  (gr_text NES (at 182.245 102.87) (layer F.SilkS)
    (effects (font (size 1.5 1.5) (thickness 0.3)))
  )
  (gr_text "SNES\n" (at 182.245 88.265) (layer F.SilkS)
    (effects (font (size 1.5 1.5) (thickness 0.3)))
  )

  (segment (start 182.2003 83.6445) (end 182.2003 83.185) (width 0.25) (layer B.Cu) (net 1))
  (segment (start 186.4158 87.86) (end 182.2003 83.6445) (width 0.25) (layer B.Cu) (net 1))
  (segment (start 191.77 87.86) (end 186.4158 87.86) (width 0.25) (layer B.Cu) (net 1))
  (segment (start 180.975 83.185) (end 182.2003 83.185) (width 0.25) (layer B.Cu) (net 1))
  (segment (start 142.305 86.5988) (end 143.9169 84.9869) (width 0.25) (layer F.Cu) (net 2))
  (segment (start 142.305 98.615) (end 142.305 86.5988) (width 0.25) (layer F.Cu) (net 2))
  (segment (start 142.305 83.375) (end 143.9169 84.9869) (width 0.25) (layer F.Cu) (net 2))
  (segment (start 181.7131 84.9869) (end 183.515 83.185) (width 0.25) (layer F.Cu) (net 2))
  (segment (start 143.9169 84.9869) (end 181.7131 84.9869) (width 0.25) (layer F.Cu) (net 2))
  (segment (start 165.4573 97.0081) (end 163.2201 97.0081) (width 0.25) (layer B.Cu) (net 3))
  (segment (start 166.8051 98.3559) (end 165.4573 97.0081) (width 0.25) (layer B.Cu) (net 3))
  (segment (start 166.8051 98.8512) (end 166.8051 98.3559) (width 0.25) (layer B.Cu) (net 3))
  (segment (start 168.1443 100.1904) (end 166.8051 98.8512) (width 0.25) (layer B.Cu) (net 3))
  (segment (start 181.1146 100.1904) (end 168.1443 100.1904) (width 0.25) (layer B.Cu) (net 3))
  (segment (start 183.515 97.79) (end 181.1146 100.1904) (width 0.25) (layer B.Cu) (net 3))
  (segment (start 159.2016 92.9896) (end 163.2201 97.0081) (width 0.25) (layer B.Cu) (net 3))
  (segment (start 159.2016 66.4774) (end 159.2016 92.9896) (width 0.25) (layer B.Cu) (net 3))
  (segment (start 160.02 65.659) (end 159.2016 66.4774) (width 0.25) (layer B.Cu) (net 3))
  (segment (start 164.465 103.158) (end 164.465 119.761) (width 0.25) (layer B.Cu) (net 3))
  (segment (start 163.2201 101.9131) (end 164.465 103.158) (width 0.25) (layer B.Cu) (net 3))
  (segment (start 163.2201 97.0081) (end 163.2201 101.9131) (width 0.25) (layer B.Cu) (net 3))
  (segment (start 182.2003 97.3304) (end 182.2003 97.79) (width 0.25) (layer B.Cu) (net 4))
  (segment (start 182.966 96.5647) (end 182.2003 97.3304) (width 0.25) (layer B.Cu) (net 4))
  (segment (start 190.7524 96.5647) (end 182.966 96.5647) (width 0.25) (layer B.Cu) (net 4))
  (segment (start 194.81 92.5071) (end 190.7524 96.5647) (width 0.25) (layer B.Cu) (net 4))
  (segment (start 194.81 90.9) (end 194.81 92.5071) (width 0.25) (layer B.Cu) (net 4))
  (segment (start 180.975 97.79) (end 182.2003 97.79) (width 0.25) (layer B.Cu) (net 4))
  (segment (start 193.29 90.5103) (end 199.39 84.4103) (width 0.25) (layer B.Cu) (net 5))
  (segment (start 193.29 92.42) (end 193.29 90.5103) (width 0.25) (layer B.Cu) (net 5))
  (segment (start 191.77 93.94) (end 193.29 92.42) (width 0.25) (layer B.Cu) (net 5))
  (segment (start 199.39 83.185) (end 199.39 84.4103) (width 0.25) (layer B.Cu) (net 5))
  (segment (start 201.93 91.44) (end 201.93 83.185) (width 0.25) (layer B.Cu) (net 6))
  (segment (start 178.435 114.935) (end 201.93 91.44) (width 0.25) (layer B.Cu) (net 6))
  (segment (start 189.865 71.12) (end 201.93 83.185) (width 0.25) (layer B.Cu) (net 6))
  (segment (start 184.785 71.12) (end 189.865 71.12) (width 0.25) (layer B.Cu) (net 6))
  (segment (start 201.93 110.49) (end 201.93 98.425) (width 0.25) (layer B.Cu) (net 7))
  (segment (start 197.485 114.935) (end 201.93 110.49) (width 0.25) (layer B.Cu) (net 7))
  (segment (start 204.7505 71.12) (end 203.835 71.12) (width 0.25) (layer B.Cu) (net 7))
  (segment (start 211.5754 77.9449) (end 204.7505 71.12) (width 0.25) (layer B.Cu) (net 7))
  (segment (start 211.5754 79.8022) (end 211.5754 77.9449) (width 0.25) (layer B.Cu) (net 7))
  (segment (start 212.5775 80.8043) (end 211.5754 79.8022) (width 0.25) (layer B.Cu) (net 7))
  (segment (start 213.1351 80.8043) (end 212.5775 80.8043) (width 0.25) (layer B.Cu) (net 7))
  (segment (start 213.8109 81.4801) (end 213.1351 80.8043) (width 0.25) (layer B.Cu) (net 7))
  (segment (start 213.8109 82.3919) (end 213.8109 81.4801) (width 0.25) (layer B.Cu) (net 7))
  (segment (start 213.0178 83.185) (end 213.8109 82.3919) (width 0.25) (layer B.Cu) (net 7))
  (segment (start 212.4312 83.185) (end 213.0178 83.185) (width 0.25) (layer B.Cu) (net 7))
  (segment (start 211.308 84.3082) (end 212.4312 83.185) (width 0.25) (layer B.Cu) (net 7))
  (segment (start 211.308 89.047) (end 211.308 84.3082) (width 0.25) (layer B.Cu) (net 7))
  (segment (start 201.93 98.425) (end 211.308 89.047) (width 0.25) (layer B.Cu) (net 7))
  (segment (start 192.1597 92.42) (end 198.1647 98.425) (width 0.25) (layer F.Cu) (net 8))
  (segment (start 190.215 92.42) (end 192.1597 92.42) (width 0.25) (layer F.Cu) (net 8))
  (segment (start 188.73 90.935) (end 190.215 92.42) (width 0.25) (layer F.Cu) (net 8))
  (segment (start 199.39 98.425) (end 198.1647 98.425) (width 0.25) (layer F.Cu) (net 8))
  (segment (start 170.053 69.977) (end 173.99 66.04) (width 0.25) (layer F.Cu) (net 9))
  (segment (start 164.338 69.977) (end 170.053 69.977) (width 0.25) (layer F.Cu) (net 9))
  (segment (start 168.805 98.615) (end 168.805 83.375) (width 0.25) (layer B.Cu) (net 9))
  (segment (start 168.805 74.444) (end 164.338 69.977) (width 0.25) (layer B.Cu) (net 9))
  (segment (start 168.805 83.375) (end 168.805 74.444) (width 0.25) (layer B.Cu) (net 9))
  (segment (start 212.725 106.045) (end 212.725 107.1203) (width 0.25) (layer B.Cu) (net 9))
  (segment (start 191.77 117.475) (end 189.23 120.015) (width 0.25) (layer B.Cu) (net 9))
  (segment (start 196.215 117.475) (end 191.77 117.475) (width 0.25) (layer B.Cu) (net 9))
  (segment (start 212.725 91.44) (end 215.265 93.98) (width 0.25) (layer B.Cu) (net 9))
  (segment (start 212.725 86.995) (end 212.725 91.44) (width 0.25) (layer B.Cu) (net 9))
  (segment (start 215.265 102.5641) (end 215.265 93.98) (width 0.25) (layer F.Cu) (net 9))
  (segment (start 212.8594 104.9697) (end 215.265 102.5641) (width 0.25) (layer F.Cu) (net 9))
  (segment (start 212.725 104.9697) (end 212.8594 104.9697) (width 0.25) (layer F.Cu) (net 9))
  (segment (start 212.725 106.045) (end 212.725 104.9697) (width 0.25) (layer F.Cu) (net 9))
  (segment (start 178.2403 117.6094) (end 178.2403 117.475) (width 0.25) (layer F.Cu) (net 9))
  (segment (start 180.6459 120.015) (end 178.2403 117.6094) (width 0.25) (layer F.Cu) (net 9))
  (segment (start 189.23 120.015) (end 180.6459 120.015) (width 0.25) (layer F.Cu) (net 9))
  (segment (start 177.165 117.475) (end 178.2403 117.475) (width 0.25) (layer F.Cu) (net 9))
  (segment (start 205.105 68.58) (end 204.0297 68.58) (width 0.25) (layer F.Cu) (net 9))
  (segment (start 212.725 86.995) (end 212.725 85.9197) (width 0.25) (layer B.Cu) (net 9))
  (segment (start 205.105 68.58) (end 206.1803 68.58) (width 0.25) (layer B.Cu) (net 9))
  (segment (start 204.0297 68.5226) (end 204.0297 68.58) (width 0.25) (layer F.Cu) (net 9))
  (segment (start 201.5471 66.04) (end 204.0297 68.5226) (width 0.25) (layer F.Cu) (net 9))
  (segment (start 193.04 66.04) (end 201.5471 66.04) (width 0.25) (layer F.Cu) (net 9))
  (segment (start 190.5 68.58) (end 186.055 68.58) (width 0.25) (layer B.Cu) (net 9))
  (segment (start 193.04 66.04) (end 190.5 68.58) (width 0.25) (layer B.Cu) (net 9))
  (segment (start 215.265 74.93) (end 213.9426 76.2524) (width 0.25) (layer B.Cu) (net 9))
  (segment (start 213.8527 76.2524) (end 206.1803 68.58) (width 0.25) (layer B.Cu) (net 9))
  (segment (start 213.9426 76.2524) (end 213.8527 76.2524) (width 0.25) (layer B.Cu) (net 9))
  (segment (start 184.9797 68.4456) (end 184.9797 68.58) (width 0.25) (layer B.Cu) (net 9))
  (segment (start 182.5741 66.04) (end 184.9797 68.4456) (width 0.25) (layer B.Cu) (net 9))
  (segment (start 173.99 66.04) (end 182.5741 66.04) (width 0.25) (layer B.Cu) (net 9))
  (segment (start 186.055 68.58) (end 184.9797 68.58) (width 0.25) (layer B.Cu) (net 9))
  (segment (start 160.147 107.273) (end 160.147 115.443) (width 0.25) (layer F.Cu) (net 9))
  (segment (start 168.805 98.615) (end 160.147 107.273) (width 0.25) (layer F.Cu) (net 9))
  (segment (start 214.2973 76.6071) (end 213.9426 76.2524) (width 0.25) (layer B.Cu) (net 9))
  (segment (start 214.2973 84.4818) (end 214.2973 76.6071) (width 0.25) (layer B.Cu) (net 9))
  (segment (start 212.8594 85.9197) (end 214.2973 84.4818) (width 0.25) (layer B.Cu) (net 9))
  (segment (start 212.725 85.9197) (end 212.8594 85.9197) (width 0.25) (layer B.Cu) (net 9))
  (segment (start 196.215 117.475) (end 197.2903 117.475) (width 0.25) (layer B.Cu) (net 9))
  (segment (start 208.28 120.015) (end 208.28 119.4036) (width 0.25) (layer B.Cu) (net 9))
  (segment (start 212.725 114.9586) (end 208.28 119.4036) (width 0.25) (layer B.Cu) (net 9))
  (segment (start 212.725 107.1203) (end 212.725 114.9586) (width 0.25) (layer B.Cu) (net 9))
  (segment (start 197.2903 117.6094) (end 197.2903 117.475) (width 0.25) (layer B.Cu) (net 9))
  (segment (start 199.0845 119.4036) (end 197.2903 117.6094) (width 0.25) (layer B.Cu) (net 9))
  (segment (start 208.28 119.4036) (end 199.0845 119.4036) (width 0.25) (layer B.Cu) (net 9))
  (segment (start 146.305 105.919) (end 160.147 119.761) (width 0.25) (layer B.Cu) (net 10))
  (segment (start 146.305 98.615) (end 146.305 105.919) (width 0.25) (layer B.Cu) (net 10))
  (segment (start 211.2604 98.2304) (end 210.185 97.155) (width 0.25) (layer B.Cu) (net 10))
  (segment (start 211.2604 102.6929) (end 211.2604 98.2304) (width 0.25) (layer B.Cu) (net 10))
  (segment (start 210.5045 103.4488) (end 211.2604 102.6929) (width 0.25) (layer B.Cu) (net 10))
  (segment (start 209.9904 103.4488) (end 210.5045 103.4488) (width 0.25) (layer B.Cu) (net 10))
  (segment (start 205.105 108.3342) (end 209.9904 103.4488) (width 0.25) (layer B.Cu) (net 10))
  (segment (start 205.105 114.935) (end 205.105 108.3342) (width 0.25) (layer B.Cu) (net 10))
  (segment (start 187.166 113.824) (end 186.055 114.935) (width 0.25) (layer F.Cu) (net 10))
  (segment (start 203.994 113.824) (end 187.166 113.824) (width 0.25) (layer F.Cu) (net 10))
  (segment (start 205.105 114.935) (end 203.994 113.824) (width 0.25) (layer F.Cu) (net 10))
  (segment (start 184.0311 112.9111) (end 186.055 114.935) (width 0.25) (layer F.Cu) (net 10))
  (segment (start 166.9969 112.9111) (end 184.0311 112.9111) (width 0.25) (layer F.Cu) (net 10))
  (segment (start 160.147 119.761) (end 166.9969 112.9111) (width 0.25) (layer F.Cu) (net 10))
  (segment (start 150.305 107.8289) (end 150.305 98.615) (width 0.25) (layer B.Cu) (net 12))
  (segment (start 160.1984 117.7223) (end 150.305 107.8289) (width 0.25) (layer B.Cu) (net 12))
  (segment (start 160.389 117.7223) (end 160.1984 117.7223) (width 0.25) (layer B.Cu) (net 12))
  (segment (start 161.752 119.0853) (end 160.389 117.7223) (width 0.25) (layer B.Cu) (net 12))
  (segment (start 161.752 122.474) (end 161.752 119.0853) (width 0.25) (layer B.Cu) (net 12))
  (segment (start 160.147 124.079) (end 161.752 122.474) (width 0.25) (layer B.Cu) (net 12))
  (segment (start 202.565 107.315) (end 210.185 99.695) (width 0.25) (layer B.Cu) (net 12))
  (segment (start 202.565 114.935) (end 202.565 107.315) (width 0.25) (layer B.Cu) (net 12))
  (segment (start 201.4696 116.0304) (end 202.565 114.935) (width 0.25) (layer F.Cu) (net 12))
  (segment (start 184.6104 116.0304) (end 201.4696 116.0304) (width 0.25) (layer F.Cu) (net 12))
  (segment (start 183.515 114.935) (end 184.6104 116.0304) (width 0.25) (layer F.Cu) (net 12))
  (segment (start 181.9462 113.3662) (end 183.515 114.935) (width 0.25) (layer F.Cu) (net 12))
  (segment (start 174.2913 113.3662) (end 181.9462 113.3662) (width 0.25) (layer F.Cu) (net 12))
  (segment (start 165.9241 121.7334) (end 174.2913 113.3662) (width 0.25) (layer F.Cu) (net 12))
  (segment (start 162.4925 121.7334) (end 165.9241 121.7334) (width 0.25) (layer F.Cu) (net 12))
  (segment (start 162.4925 121.7335) (end 162.4925 121.7334) (width 0.25) (layer F.Cu) (net 12))
  (segment (start 160.147 124.079) (end 162.4925 121.7335) (width 0.25) (layer F.Cu) (net 12))
  (segment (start 160.805 104.7629) (end 160.805 98.615) (width 0.25) (layer B.Cu) (net 13))
  (segment (start 162.837 106.7949) (end 160.805 104.7629) (width 0.25) (layer B.Cu) (net 13))
  (segment (start 162.837 122.451) (end 162.837 106.7949) (width 0.25) (layer B.Cu) (net 13))
  (segment (start 164.465 124.079) (end 162.837 122.451) (width 0.25) (layer B.Cu) (net 13))
  (segment (start 211.308 102.382) (end 212.725 100.965) (width 0.25) (layer F.Cu) (net 13))
  (segment (start 211.308 110.264) (end 211.308 102.382) (width 0.25) (layer F.Cu) (net 13))
  (segment (start 205.4604 116.1116) (end 211.308 110.264) (width 0.25) (layer F.Cu) (net 13))
  (segment (start 202.6584 116.1116) (end 205.4604 116.1116) (width 0.25) (layer F.Cu) (net 13))
  (segment (start 201.295 117.475) (end 202.6584 116.1116) (width 0.25) (layer F.Cu) (net 13))
  (segment (start 181.1343 116.3643) (end 182.245 117.475) (width 0.25) (layer F.Cu) (net 13))
  (segment (start 176.2991 116.3643) (end 181.1343 116.3643) (width 0.25) (layer F.Cu) (net 13))
  (segment (start 175.1903 117.4731) (end 176.2991 116.3643) (width 0.25) (layer F.Cu) (net 13))
  (segment (start 175.1902 117.4731) (end 175.1903 117.4731) (width 0.25) (layer F.Cu) (net 13))
  (segment (start 173.98 117.4731) (end 175.1902 117.4731) (width 0.25) (layer F.Cu) (net 13))
  (segment (start 167.3741 124.079) (end 173.98 117.4731) (width 0.25) (layer F.Cu) (net 13))
  (segment (start 164.465 124.079) (end 167.3741 124.079) (width 0.25) (layer F.Cu) (net 13))
  (segment (start 197.4253 121.3447) (end 201.295 117.475) (width 0.25) (layer F.Cu) (net 13))
  (segment (start 179.0618 121.3447) (end 197.4253 121.3447) (width 0.25) (layer F.Cu) (net 13))
  (segment (start 175.1903 117.4731) (end 179.0618 121.3447) (width 0.25) (layer F.Cu) (net 13))
  (segment (start 160.147 126.3109) (end 160.147 128.397) (width 0.25) (layer F.Cu) (net 14))
  (segment (start 154.305 120.4689) (end 160.147 126.3109) (width 0.25) (layer F.Cu) (net 14))
  (segment (start 154.305 98.615) (end 154.305 120.4689) (width 0.25) (layer F.Cu) (net 14))
  (segment (start 198.9496 116.0104) (end 200.025 114.935) (width 0.25) (layer B.Cu) (net 14))
  (segment (start 182.0504 116.0104) (end 198.9496 116.0104) (width 0.25) (layer B.Cu) (net 14))
  (segment (start 180.975 114.935) (end 182.0504 116.0104) (width 0.25) (layer B.Cu) (net 14))
  (segment (start 203.835 108.585) (end 210.185 102.235) (width 0.25) (layer B.Cu) (net 14))
  (segment (start 203.835 115.2289) (end 203.835 108.585) (width 0.25) (layer B.Cu) (net 14))
  (segment (start 203.0358 116.0281) (end 203.835 115.2289) (width 0.25) (layer B.Cu) (net 14))
  (segment (start 201.1181 116.0281) (end 203.0358 116.0281) (width 0.25) (layer B.Cu) (net 14))
  (segment (start 200.025 114.935) (end 201.1181 116.0281) (width 0.25) (layer B.Cu) (net 14))
  (segment (start 162.3593 124.0986) (end 160.147 126.3109) (width 0.25) (layer F.Cu) (net 14))
  (segment (start 162.3593 123.9444) (end 162.3593 124.0986) (width 0.25) (layer F.Cu) (net 14))
  (segment (start 164.1199 122.1838) (end 162.3593 123.9444) (width 0.25) (layer F.Cu) (net 14))
  (segment (start 167.9149 122.1838) (end 164.1199 122.1838) (width 0.25) (layer F.Cu) (net 14))
  (segment (start 176.2821 113.8166) (end 167.9149 122.1838) (width 0.25) (layer F.Cu) (net 14))
  (segment (start 179.8566 113.8166) (end 176.2821 113.8166) (width 0.25) (layer F.Cu) (net 14))
  (segment (start 180.975 114.935) (end 179.8566 113.8166) (width 0.25) (layer F.Cu) (net 14))
  (segment (start 169.7826 122.479) (end 177.1028 115.1588) (width 0.25) (layer B.Cu) (net 15))
  (segment (start 169.7826 123.0794) (end 169.7826 122.479) (width 0.25) (layer B.Cu) (net 15))
  (segment (start 164.465 128.397) (end 169.7826 123.0794) (width 0.25) (layer B.Cu) (net 15))
  (segment (start 164.805 102.8611) (end 177.1028 115.1588) (width 0.25) (layer B.Cu) (net 15))
  (segment (start 164.805 98.615) (end 164.805 102.8611) (width 0.25) (layer B.Cu) (net 15))
  (segment (start 179.4189 117.475) (end 179.705 117.475) (width 0.25) (layer B.Cu) (net 15))
  (segment (start 177.1028 115.1588) (end 179.4189 117.475) (width 0.25) (layer B.Cu) (net 15))
  (segment (start 197.6796 118.5504) (end 198.755 117.475) (width 0.25) (layer F.Cu) (net 15))
  (segment (start 180.7804 118.5504) (end 197.6796 118.5504) (width 0.25) (layer F.Cu) (net 15))
  (segment (start 179.705 117.475) (end 180.7804 118.5504) (width 0.25) (layer F.Cu) (net 15))
  (segment (start 199.8321 118.5521) (end 198.755 117.475) (width 0.25) (layer B.Cu) (net 15))
  (segment (start 204.2891 118.5521) (end 199.8321 118.5521) (width 0.25) (layer B.Cu) (net 15))
  (segment (start 211.6496 111.1916) (end 204.2891 118.5521) (width 0.25) (layer B.Cu) (net 15))
  (segment (start 211.6496 104.5804) (end 211.6496 111.1916) (width 0.25) (layer B.Cu) (net 15))
  (segment (start 212.725 103.505) (end 211.6496 104.5804) (width 0.25) (layer B.Cu) (net 15))
  (segment (start 194.6644 93.7944) (end 202.1156 93.7944) (width 0.25) (layer F.Cu) (net 16))
  (segment (start 191.77 90.9) (end 194.6644 93.7944) (width 0.25) (layer F.Cu) (net 16))
  (segment (start 210.185 85.725) (end 202.1156 93.7944) (width 0.25) (layer F.Cu) (net 16))
  (segment (start 202.1156 96.7056) (end 210.185 104.775) (width 0.25) (layer F.Cu) (net 16))
  (segment (start 202.1156 93.7944) (end 202.1156 96.7056) (width 0.25) (layer F.Cu) (net 16))
  (segment (start 162.7535 59.7565) (end 162.7535 68.3694) (width 0.25) (layer B.Cu) (net 17))
  (segment (start 160.02 57.023) (end 162.7535 59.7565) (width 0.25) (layer B.Cu) (net 17))
  (segment (start 162.7535 81.3235) (end 164.805 83.375) (width 0.25) (layer B.Cu) (net 17))
  (segment (start 162.7535 68.3694) (end 162.7535 81.3235) (width 0.25) (layer B.Cu) (net 17))
  (segment (start 201.4798 67.4948) (end 202.565 68.58) (width 0.25) (layer B.Cu) (net 17))
  (segment (start 194.3252 67.4948) (end 201.4798 67.4948) (width 0.25) (layer B.Cu) (net 17))
  (segment (start 192.1646 69.6554) (end 194.3252 67.4948) (width 0.25) (layer B.Cu) (net 17))
  (segment (start 183.515 69.6554) (end 192.1646 69.6554) (width 0.25) (layer B.Cu) (net 17))
  (segment (start 183.515 71.4132) (end 183.515 69.6554) (width 0.25) (layer B.Cu) (net 17))
  (segment (start 182.6992 72.229) (end 183.515 71.4132) (width 0.25) (layer B.Cu) (net 17))
  (segment (start 171.7061 72.229) (end 182.6992 72.229) (width 0.25) (layer B.Cu) (net 17))
  (segment (start 167.8465 68.3694) (end 171.7061 72.229) (width 0.25) (layer B.Cu) (net 17))
  (segment (start 162.7535 68.3694) (end 167.8465 68.3694) (width 0.25) (layer B.Cu) (net 17))
  (segment (start 183.515 69.6554) (end 183.515 68.58) (width 0.25) (layer B.Cu) (net 17))
  (segment (start 202.8448 68.58) (end 202.565 68.58) (width 0.25) (layer F.Cu) (net 17))
  (segment (start 211.7511 77.4863) (end 202.8448 68.58) (width 0.25) (layer F.Cu) (net 17))
  (segment (start 211.7511 78.828) (end 211.7511 77.4863) (width 0.25) (layer F.Cu) (net 17))
  (segment (start 211.5981 78.981) (end 211.7511 78.828) (width 0.25) (layer F.Cu) (net 17))
  (segment (start 211.5981 83.3281) (end 211.5981 78.981) (width 0.25) (layer F.Cu) (net 17))
  (segment (start 212.725 84.455) (end 211.5981 83.3281) (width 0.25) (layer F.Cu) (net 17))
  (segment (start 201.295 74.295) (end 201.295 71.12) (width 0.25) (layer B.Cu) (net 18))
  (segment (start 210.185 83.185) (end 201.295 74.295) (width 0.25) (layer B.Cu) (net 18))
  (segment (start 162.746 55.431) (end 164.338 57.023) (width 0.25) (layer B.Cu) (net 18))
  (segment (start 159.3829 55.431) (end 162.746 55.431) (width 0.25) (layer B.Cu) (net 18))
  (segment (start 154.305 60.5089) (end 159.3829 55.431) (width 0.25) (layer B.Cu) (net 18))
  (segment (start 154.305 83.375) (end 154.305 60.5089) (width 0.25) (layer B.Cu) (net 18))
  (segment (start 164.338 58.2008) (end 164.338 57.023) (width 0.25) (layer B.Cu) (net 18))
  (segment (start 173.5509 67.4137) (end 164.338 58.2008) (width 0.25) (layer B.Cu) (net 18))
  (segment (start 178.8331 67.4137) (end 173.5509 67.4137) (width 0.25) (layer B.Cu) (net 18))
  (segment (start 179.705 68.2856) (end 178.8331 67.4137) (width 0.25) (layer B.Cu) (net 18))
  (segment (start 179.705 68.8931) (end 179.705 68.2856) (width 0.25) (layer B.Cu) (net 18))
  (segment (start 181.9319 71.12) (end 179.705 68.8931) (width 0.25) (layer B.Cu) (net 18))
  (segment (start 182.245 71.12) (end 181.9319 71.12) (width 0.25) (layer B.Cu) (net 18))
  (segment (start 200.2196 70.0446) (end 201.295 71.12) (width 0.25) (layer F.Cu) (net 18))
  (segment (start 183.3204 70.0446) (end 200.2196 70.0446) (width 0.25) (layer F.Cu) (net 18))
  (segment (start 182.245 71.12) (end 183.3204 70.0446) (width 0.25) (layer F.Cu) (net 18))
  (segment (start 161.6132 62.9342) (end 160.02 61.341) (width 0.25) (layer B.Cu) (net 19))
  (segment (start 161.6132 82.5668) (end 161.6132 62.9342) (width 0.25) (layer B.Cu) (net 19))
  (segment (start 160.805 83.375) (end 161.6132 82.5668) (width 0.25) (layer B.Cu) (net 19))
  (segment (start 178.4912 66.0962) (end 180.975 68.58) (width 0.25) (layer F.Cu) (net 19))
  (segment (start 175.85 66.0962) (end 178.4912 66.0962) (width 0.25) (layer F.Cu) (net 19))
  (segment (start 173.2538 63.5) (end 175.85 66.0962) (width 0.25) (layer F.Cu) (net 19))
  (segment (start 162.179 63.5) (end 173.2538 63.5) (width 0.25) (layer F.Cu) (net 19))
  (segment (start 160.02 61.341) (end 162.179 63.5) (width 0.25) (layer F.Cu) (net 19))
  (segment (start 182.0504 67.5046) (end 180.975 68.58) (width 0.25) (layer F.Cu) (net 19))
  (segment (start 198.9496 67.5046) (end 182.0504 67.5046) (width 0.25) (layer F.Cu) (net 19))
  (segment (start 200.025 68.58) (end 198.9496 67.5046) (width 0.25) (layer F.Cu) (net 19))
  (segment (start 212.725 81.6623) (end 212.725 81.915) (width 0.25) (layer B.Cu) (net 19))
  (segment (start 210.2784 79.2157) (end 212.725 81.6623) (width 0.25) (layer B.Cu) (net 19))
  (segment (start 209.7634 79.2157) (end 210.2784 79.2157) (width 0.25) (layer B.Cu) (net 19))
  (segment (start 202.565 72.0173) (end 209.7634 79.2157) (width 0.25) (layer B.Cu) (net 19))
  (segment (start 202.565 70.8069) (end 202.565 72.0173) (width 0.25) (layer B.Cu) (net 19))
  (segment (start 200.3381 68.58) (end 202.565 70.8069) (width 0.25) (layer B.Cu) (net 19))
  (segment (start 200.025 68.58) (end 200.3381 68.58) (width 0.25) (layer B.Cu) (net 19))
  (segment (start 177.5257 73.2993) (end 179.705 71.12) (width 0.25) (layer F.Cu) (net 20))
  (segment (start 160.3807 73.2993) (end 177.5257 73.2993) (width 0.25) (layer F.Cu) (net 20))
  (segment (start 150.305 83.375) (end 160.3807 73.2993) (width 0.25) (layer F.Cu) (net 20))
  (segment (start 210.185 80.645) (end 210.185 79.5442) (width 0.25) (layer F.Cu) (net 20))
  (segment (start 188.1292 79.5442) (end 210.185 79.5442) (width 0.25) (layer F.Cu) (net 20))
  (segment (start 179.705 71.12) (end 188.1292 79.5442) (width 0.25) (layer F.Cu) (net 20))
  (segment (start 202.1027 74.4677) (end 198.755 71.12) (width 0.25) (layer F.Cu) (net 20))
  (segment (start 208.0793 74.4677) (end 202.1027 74.4677) (width 0.25) (layer F.Cu) (net 20))
  (segment (start 211.2802 77.6686) (end 208.0793 74.4677) (width 0.25) (layer F.Cu) (net 20))
  (segment (start 211.2802 78.5627) (end 211.2802 77.6686) (width 0.25) (layer F.Cu) (net 20))
  (segment (start 210.2987 79.5442) (end 211.2802 78.5627) (width 0.25) (layer F.Cu) (net 20))
  (segment (start 210.185 79.5442) (end 210.2987 79.5442) (width 0.25) (layer F.Cu) (net 20))
  (segment (start 179.27 71.12) (end 179.705 71.12) (width 0.25) (layer B.Cu) (net 20))
  (segment (start 176.2998 68.1498) (end 179.27 71.12) (width 0.25) (layer B.Cu) (net 20))
  (segment (start 171.52 68.1498) (end 176.2998 68.1498) (width 0.25) (layer B.Cu) (net 20))
  (segment (start 164.7112 61.341) (end 171.52 68.1498) (width 0.25) (layer B.Cu) (net 20))
  (segment (start 164.338 61.341) (end 164.7112 61.341) (width 0.25) (layer B.Cu) (net 20))
  (segment (start 203.2 78.105) (end 196.215 71.12) (width 0.25) (layer F.Cu) (net 22))
  (segment (start 210.185 78.105) (end 203.2 78.105) (width 0.25) (layer F.Cu) (net 22))
  (segment (start 146.622 83.375) (end 164.338 65.659) (width 0.25) (layer F.Cu) (net 22))
  (segment (start 146.305 83.375) (end 146.622 83.375) (width 0.25) (layer F.Cu) (net 22))
  (segment (start 195.1396 72.1954) (end 196.215 71.12) (width 0.25) (layer F.Cu) (net 22))
  (segment (start 181.7526 72.1954) (end 195.1396 72.1954) (width 0.25) (layer F.Cu) (net 22))
  (segment (start 180.975 71.4178) (end 181.7526 72.1954) (width 0.25) (layer F.Cu) (net 22))
  (segment (start 180.975 70.8591) (end 180.975 71.4178) (width 0.25) (layer F.Cu) (net 22))
  (segment (start 180.1395 70.0236) (end 180.975 70.8591) (width 0.25) (layer F.Cu) (net 22))
  (segment (start 178.2614 70.0236) (end 180.1395 70.0236) (width 0.25) (layer F.Cu) (net 22))
  (segment (start 177.165 71.12) (end 178.2614 70.0236) (width 0.25) (layer F.Cu) (net 22))
  (segment (start 173.7986 71.12) (end 177.165 71.12) (width 0.25) (layer B.Cu) (net 22))
  (segment (start 168.3376 65.659) (end 173.7986 71.12) (width 0.25) (layer B.Cu) (net 22))
  (segment (start 164.338 65.659) (end 168.3376 65.659) (width 0.25) (layer B.Cu) (net 22))

)
